PROJ/PD1/main-mem/main-mem.vcd
$date
	Sun May 24 00:37:20 2020
$end
$version
	Icarus Verilog
$end
$timescale
	1s
$end
$scope module dut $end
$scope module memory $end
$var wire 32 ! address [31:0] $end
$var wire 1 " clock $end
$var wire 32 # data_in [31:0] $end
$var wire 1 $ read_write $end
$var reg 32 % data_out [31:0] $end
$upscope $end
$upscope $end
$enddefinitions $end
#0
$dumpvars
bx %
0$
bx #
0"
b1000000000000000000000000 !
$end
#10
b11111110000000010000000100010011 %
1"
#11
b1000000000000000000000100 !
#20
0"
#30
b100010010111000100011 %
1"
#31
b1000000000000000000001000 !
#40
0"
#50
b1100000000011110010011 %
1"
#51
b1000000000000000000001100 !
#60
0"
#70
b111100010010011000100011 %
1"
#71
b1000000000000000000010000 !
#80
0"
#90
b1000000000011110010011 %
1"
#91
b1000000000000000000010100 !
#100
0"
#110
b111100010010010000100011 %
1"
#111
b1000000000000000000011000 !
#120
0"
#130
b10010001000100011 %
1"
#131
b1000000000000000000011100 !
#140
0"
#150
b110000010010011100000011 %
1"
#151
b1000000000000000000100000 !
#160
0"
#170
b100000010010011110000011 %
1"
#171
b1000000000000000000100100 !
#180
0"
#190
b111101110000011110110011 %
1"
#191
b1000000000000000000101000 !
#200
0"
#210
b111100010010001000100011 %
1"
#211
b1000000000000000000101100 !
#220
0"
#230
b10000010010010100000011 %
1"
#231
b1000000000000000000110000 !
#240
0"
#250
b1100000000000000011101111 %
1"
#251
b1000000000000000000110100 !
#260
0"
#270
b1010000011110010011 %
1"
#271
b1000000000000000000111000 !
#280
0"
#290
b1111000010100010011 %
1"
#291
b1000000000000000000111100 !
#300
0"
#310
b1110000010010000010000011 %
1"
#311
b1000000000000000001000000 !
#320
0"
#330
b10000000010000000100010011 %
1"
#331
b1000000000000000001000100 !
#340
0"
#350
b1000000001100111 %
1"
#351
b1000000000000000001001000 !
#360
0"
#370
b11111110000000010000000100010011 %
1"
#371
b1000000000000000001001100 !
#380
0"
#390
b100010010111000100011 %
1"
#391
b1000000000000000001010000 !
#400
0"
#410
b101000010010011000100011 %
1"
#411
b1000000000000000001010100 !
#420
0"
#430
b110000010010011100000011 %
1"
#431
b1000000000000000001011000 !
#440
0"
#450
b10100000000011110010011 %
1"
#451
b1000000000000000001011100 !
#460
0"
#470
b111101110001100001100011 %
1"
#471
b1000000000000000001100000 !
#480
0"
#490
b10010000000000000011101111 %
1"
#491
b1000000000000000001100100 !
#500
0"
#510
b1010000011110010011 %
1"
#511
b1000000000000000001101000 !
#520
0"
#530
b110000000000000001101111 %
1"
#531
b1000000000000000001101100 !
#540
0"
#550
b10010000000000000011101111 %
1"
#551
b1000000000000000001110000 !
#560
0"
#570
b1010000011110010011 %
1"
#571
b1000000000000000001110100 !
#580
0"
#590
b1111000010100010011 %
1"
#591
b1000000000000000001111000 !
#600
0"
#610
b1110000010010000010000011 %
1"
#611
b1000000000000000001111100 !
#620
0"
#630
b10000000010000000100010011 %
1"
#631
b1000000000000000010000000 !
#640
0"
#650
b1000000001100111 %
1"
#651
b1000000000000000010000100 !
#660
0"
#670
b100000000011110010011 %
1"
#671
b1000000000000000010001000 !
#680
0"
#690
b1111000010100010011 %
1"
#691
b1000000000000000010001100 !
#700
0"
#710
b1000000001100111 %
1"
#711
b1000000000000000010010000 !
#720
0"
#730
b11110010011 %
1"
#731
b1000000000000000010010100 !
#740
0"
#750
b1111000010100010011 %
1"
#751
b1000000000000000010011000 !
#760
0"
#770
b1000000001100111 %
1"
#771
b1000000000000000010011100 !
