PROJ/PD5/pipeline/dump.vcd
$date
	Tue Jul 21 23:22:44 2020
$end
$version
	Icarus Verilog
$end
$timescale
	1s
$end
$scope module dut $end
$scope module stage_dec $end
$scope module reggie $end
$var wire 5 ! addr_rd [4:0] $end
$var wire 5 " addr_rs1 [4:0] $end
$var wire 5 # addr_rs2 [4:0] $end
$var wire 1 $ clock $end
$var wire 1 % ecall $end
$var wire 32 & instr [31:0] $end
$var wire 1 ' write_enable $end
$var wire 32 ( data_rd [31:0] $end
$var reg 32 ) data_rs1 [31:0] $end
$var reg 32 * data_rs2 [31:0] $end
$var integer 32 + i [31:0] $end
$var integer 32 , sp_initial_occurences [31:0] $end
$upscope $end
$upscope $end
$upscope $end
$scope module dut $end
$scope module fwd $end
$var wire 5 - rs2_mem [4:0] $end
$var wire 5 . rs2_ex [4:0] $end
$var wire 5 / rs1_ex [4:0] $end
$var wire 5 0 rd_wb [4:0] $end
$var wire 5 1 rd_mem [4:0] $end
$var wire 7 2 opcode_wb [6:0] $end
$var wire 7 3 opcode_mem [6:0] $end
$var wire 7 4 opcode_ex [6:0] $end
$var wire 32 5 instr_wb [31:0] $end
$var wire 32 6 instr_mem [31:0] $end
$var wire 32 7 instr_ex [31:0] $end
$var reg 2 8 a_sel [1:0] $end
$var reg 2 9 b_sel [1:0] $end
$var reg 1 : dmem_data_sel $end
$upscope $end
$upscope $end
$scope module dut $end
$scope module stage_fet $end
$var wire 32 ; alu [31:0] $end
$var wire 1 $ clock $end
$var wire 1 < pc_sel $end
$var wire 1 = stall $end
$var wire 32 > instr_out [31:0] $end
$var reg 32 ? pc_next [31:0] $end
$var reg 32 @ pc_out [31:0] $end
$scope module decdisp_dec $end
$var wire 1 $ clock $end
$var wire 32 A pc [31:0] $end
$var wire 3 B stage [2:0] $end
$var wire 32 C decode_in [31:0] $end
$var reg 32 D addr_b [31:0] $end
$var reg 32 E addr_j [31:0] $end
$var reg 3 F funct3 [2:0] $end
$var reg 7 G funct7 [6:0] $end
$var reg 32 H imm_i [31:0] $end
$var reg 32 I imm_s [31:0] $end
$var reg 32 J imm_u [31:0] $end
$var reg 7 K opcode [6:0] $end
$var reg 5 L rd [4:0] $end
$var reg 5 M rs1 [4:0] $end
$var reg 5 N rs2 [4:0] $end
$var reg 5 O shamt [4:0] $end
$var integer 32 P decode_in_changed [31:0] $end
$var integer 32 Q pc_changed [31:0] $end
$var integer 32 R printed [31:0] $end
$upscope $end
$scope module imem $end
$var wire 32 S address [31:0] $end
$var wire 1 $ clock $end
$var wire 32 T data_in [31:0] $end
$var wire 1 U load_instrs $end
$var wire 1 V read_write $end
$var wire 2 W wr_width [1:0] $end
$var reg 32 X data_out [31:0] $end
$var integer 32 Y i [31:0] $end
$upscope $end
$upscope $end
$upscope $end
$scope module dut $end
$scope module stage_dec $end
$var wire 1 $ clock $end
$var wire 32 Z wb [31:0] $end
$var wire 1 [ stallbj $end
$var wire 1 = stall $end
$var wire 32 \ pc_out_nonstall [31:0] $end
$var wire 32 ] pc [31:0] $end
$var wire 32 ^ instr_wb [31:0] $end
$var wire 32 _ instr_out_nonstall [31:0] $end
$var wire 32 ` instr [31:0] $end
$var wire 32 a data_rs2 [31:0] $end
$var wire 32 b data_rs1 [31:0] $end
$var reg 1 % ecall $end
$var reg 3 c funct3 [2:0] $end
$var reg 7 d funct7 [6:0] $end
$var reg 32 e instr_out [31:0] $end
$var reg 7 f opcode [6:0] $end
$var reg 7 g opcode_wb [6:0] $end
$var reg 32 h pc_out [31:0] $end
$var reg 5 i rd [4:0] $end
$var reg 1 ' reg_wen $end
$var reg 5 j rs1 [4:0] $end
$var reg 5 k rs2 [4:0] $end
$scope module decdisp_dec $end
$var wire 1 $ clock $end
$var wire 32 l decode_in [31:0] $end
$var wire 32 m pc [31:0] $end
$var wire 3 n stage [2:0] $end
$var reg 32 o addr_b [31:0] $end
$var reg 32 p addr_j [31:0] $end
$var reg 3 q funct3 [2:0] $end
$var reg 7 r funct7 [6:0] $end
$var reg 32 s imm_i [31:0] $end
$var reg 32 t imm_s [31:0] $end
$var reg 32 u imm_u [31:0] $end
$var reg 7 v opcode [6:0] $end
$var reg 5 w rd [4:0] $end
$var reg 5 x rs1 [4:0] $end
$var reg 5 y rs2 [4:0] $end
$var reg 5 z shamt [4:0] $end
$var integer 32 { decode_in_changed [31:0] $end
$var integer 32 | pc_changed [31:0] $end
$var integer 32 } printed [31:0] $end
$upscope $end
$scope module instr_ff $end
$var wire 1 $ clock $end
$var wire 1 ~ reset $end
$var wire 32 !" data [31:0] $end
$var reg 32 "" data_out [31:0] $end
$upscope $end
$scope module pc_ff $end
$var wire 1 $ clock $end
$var wire 1 #" reset $end
$var wire 32 $" data [31:0] $end
$var reg 32 %" data_out [31:0] $end
$upscope $end
$scope module reggie $end
$upscope $end
$upscope $end
$upscope $end
$scope module dut $end
$scope module stage_ex $end
$var wire 2 &" a_sel_fwd [1:0] $end
$var wire 2 '" b_sel_fwd [1:0] $end
$var wire 1 $ clock $end
$var wire 32 (" data_rs1 [31:0] $end
$var wire 32 )" data_rs2 [31:0] $end
$var wire 32 *" instr [31:0] $end
$var wire 32 +" pc [31:0] $end
$var wire 32 ," wb_fwd [31:0] $end
$var wire 1 [ stallbj $end
$var wire 1 = stall $end
$var wire 32 -" pc_out [31:0] $end
$var wire 32 ." instr_out_nonstall [31:0] $end
$var wire 32 /" imm [31:0] $end
$var wire 32 0" data_rs2_out_tmp [31:0] $end
$var wire 32 1" data_rs1_out_tmp [31:0] $end
$var wire 1 2" br_lt $end
$var wire 1 3" br_eq $end
$var wire 32 4" alu_out [31:0] $end
$var wire 32 5" alu_fwd [31:0] $end
$var reg 1 6" a_sel $end
$var reg 32 7" a_sel_out [31:0] $end
$var reg 4 8" alu_sel [3:0] $end
$var reg 1 9" b_sel $end
$var reg 32 :" b_sel_out [31:0] $end
$var reg 1 ;" br_un $end
$var reg 32 <" data_rs1_out [31:0] $end
$var reg 32 =" data_rs2_out [31:0] $end
$var reg 3 >" funct3 [2:0] $end
$var reg 7 ?" funct7 [6:0] $end
$var reg 3 @" imm_sel [2:0] $end
$var reg 32 A" instr_out [31:0] $end
$var reg 7 B" opcode [6:0] $end
$var reg 1 < pc_sel_out $end
$scope module alu $end
$var wire 4 C" alu_sel [3:0] $end
$var wire 32 D" in_a [31:0] $end
$var wire 32 E" in_b [31:0] $end
$var reg 32 F" alu_out [31:0] $end
$upscope $end
$scope module bcmp $end
$var wire 1 ;" br_un $end
$var wire 32 G" rs1 [31:0] $end
$var wire 32 H" rs1_s [31:0] $end
$var wire 32 I" rs2 [31:0] $end
$var wire 32 J" rs2_s [31:0] $end
$var wire 1 2" br_lt $end
$var wire 1 3" br_eq $end
$upscope $end
$scope module decdisp_dec $end
$var wire 1 $ clock $end
$var wire 32 K" decode_in [31:0] $end
$var wire 3 L" stage [2:0] $end
$var wire 32 M" pc [31:0] $end
$var reg 32 N" addr_b [31:0] $end
$var reg 32 O" addr_j [31:0] $end
$var reg 3 P" funct3 [2:0] $end
$var reg 7 Q" funct7 [6:0] $end
$var reg 32 R" imm_i [31:0] $end
$var reg 32 S" imm_s [31:0] $end
$var reg 32 T" imm_u [31:0] $end
$var reg 7 U" opcode [6:0] $end
$var reg 5 V" rd [4:0] $end
$var reg 5 W" rs1 [4:0] $end
$var reg 5 X" rs2 [4:0] $end
$var reg 5 Y" shamt [4:0] $end
$var integer 32 Z" decode_in_changed [31:0] $end
$var integer 32 [" pc_changed [31:0] $end
$var integer 32 \" printed [31:0] $end
$upscope $end
$scope module igen $end
$var wire 3 ]" imm_sel [2:0] $end
$var wire 32 ^" instr [31:0] $end
$var wire 32 _" imm_u [31:0] $end
$var wire 32 `" imm_s [31:0] $end
$var wire 32 a" imm_j [31:0] $end
$var wire 32 b" imm_i [31:0] $end
$var wire 32 c" imm_b [31:0] $end
$var wire 32 d" imm [31:0] $end
$upscope $end
$scope module instr_ff $end
$var wire 1 $ clock $end
$var wire 32 e" data [31:0] $end
$var wire 1 f" reset $end
$var reg 32 g" data_out [31:0] $end
$upscope $end
$scope module pc_ff $end
$var wire 1 $ clock $end
$var wire 32 h" data [31:0] $end
$var wire 1 i" reset $end
$var reg 32 j" data_out [31:0] $end
$upscope $end
$scope module rs1_ff $end
$var wire 1 $ clock $end
$var wire 32 k" data [31:0] $end
$var wire 1 l" reset $end
$var reg 32 m" data_out [31:0] $end
$upscope $end
$scope module rs2_ff $end
$var wire 1 $ clock $end
$var wire 32 n" data [31:0] $end
$var wire 1 o" reset $end
$var reg 32 p" data_out [31:0] $end
$upscope $end
$upscope $end
$upscope $end
$scope module dut $end
$scope module stage_mem $end
$var wire 32 q" alu [31:0] $end
$var wire 32 r" alu_fwd_out [31:0] $end
$var wire 1 $ clock $end
$var wire 32 s" data_rs2 [31:0] $end
$var wire 1 : dmem_data_sel_fwd $end
$var wire 32 t" instr [31:0] $end
$var wire 32 u" pc [31:0] $end
$var wire 32 v" wb_fwd [31:0] $end
$var wire 32 w" pc_out [31:0] $end
$var wire 32 x" mem_out [31:0] $end
$var wire 32 y" instr_out [31:0] $end
$var wire 32 z" data_rs2_out [31:0] $end
$var wire 32 {" alu_out [31:0] $end
$var reg 32 |" dmem_data_in [31:0] $end
$var reg 3 }" funct3 [2:0] $end
$var reg 32 ~" mem_out_masked [31:0] $end
$var reg 1 !# mem_rw $end
$var reg 7 "# opcode [6:0] $end
$var reg 32 ## wb_out [31:0] $end
$var reg 2 $# wb_sel [1:0] $end
$var reg 2 %# wr_width [1:0] $end
$scope module alu_ff $end
$var wire 1 $ clock $end
$var wire 32 &# data [31:0] $end
$var wire 1 '# reset $end
$var reg 32 (# data_out [31:0] $end
$upscope $end
$scope module decdisp_dec $end
$var wire 1 $ clock $end
$var wire 3 )# stage [2:0] $end
$var wire 32 *# pc [31:0] $end
$var wire 32 +# decode_in [31:0] $end
$var reg 32 ,# addr_b [31:0] $end
$var reg 32 -# addr_j [31:0] $end
$var reg 3 .# funct3 [2:0] $end
$var reg 7 /# funct7 [6:0] $end
$var reg 32 0# imm_i [31:0] $end
$var reg 32 1# imm_s [31:0] $end
$var reg 32 2# imm_u [31:0] $end
$var reg 7 3# opcode [6:0] $end
$var reg 5 4# rd [4:0] $end
$var reg 5 5# rs1 [4:0] $end
$var reg 5 6# rs2 [4:0] $end
$var reg 5 7# shamt [4:0] $end
$var integer 32 8# decode_in_changed [31:0] $end
$var integer 32 9# pc_changed [31:0] $end
$var integer 32 :# printed [31:0] $end
$upscope $end
$scope module dmem $end
$var wire 32 ;# address [31:0] $end
$var wire 1 $ clock $end
$var wire 32 <# data_in [31:0] $end
$var wire 1 =# load_instrs $end
$var wire 1 !# read_write $end
$var wire 2 ># wr_width [1:0] $end
$var reg 32 ?# data_out [31:0] $end
$var integer 32 @# i [31:0] $end
$upscope $end
$scope module instr_ff $end
$var wire 1 $ clock $end
$var wire 32 A# data [31:0] $end
$var wire 1 B# reset $end
$var reg 32 C# data_out [31:0] $end
$upscope $end
$scope module pc_ff $end
$var wire 1 $ clock $end
$var wire 32 D# data [31:0] $end
$var wire 1 E# reset $end
$var reg 32 F# data_out [31:0] $end
$upscope $end
$scope module rs2_ff $end
$var wire 1 $ clock $end
$var wire 32 G# data [31:0] $end
$var wire 1 H# reset $end
$var reg 32 I# data_out [31:0] $end
$upscope $end
$upscope $end
$upscope $end
$scope module dut $end
$scope module stage_wb $end
$var wire 1 $ clock $end
$var wire 32 J# instr [31:0] $end
$var wire 32 K# pc [31:0] $end
$var wire 32 L# wb [31:0] $end
$var wire 32 M# wb_out [31:0] $end
$var wire 32 N# pc_out [31:0] $end
$var wire 32 O# instr_wb_out [31:0] $end
$scope module decdisp_dec $end
$var wire 1 $ clock $end
$var wire 3 P# stage [2:0] $end
$var wire 32 Q# pc [31:0] $end
$var wire 32 R# decode_in [31:0] $end
$var reg 32 S# addr_b [31:0] $end
$var reg 32 T# addr_j [31:0] $end
$var reg 3 U# funct3 [2:0] $end
$var reg 7 V# funct7 [6:0] $end
$var reg 32 W# imm_i [31:0] $end
$var reg 32 X# imm_s [31:0] $end
$var reg 32 Y# imm_u [31:0] $end
$var reg 7 Z# opcode [6:0] $end
$var reg 5 [# rd [4:0] $end
$var reg 5 \# rs1 [4:0] $end
$var reg 5 ]# rs2 [4:0] $end
$var reg 5 ^# shamt [4:0] $end
$var integer 32 _# decode_in_changed [31:0] $end
$var integer 32 `# pc_changed [31:0] $end
$var integer 32 a# printed [31:0] $end
$upscope $end
$scope module instr_ff $end
$var wire 1 $ clock $end
$var wire 32 b# data [31:0] $end
$var wire 1 c# reset $end
$var reg 32 d# data_out [31:0] $end
$upscope $end
$scope module pc_ff $end
$var wire 1 $ clock $end
$var wire 32 e# data [31:0] $end
$var wire 1 f# reset $end
$var reg 32 g# data_out [31:0] $end
$upscope $end
$scope module wb_ff $end
$var wire 1 $ clock $end
$var wire 32 h# data [31:0] $end
$var wire 1 i# reset $end
$var reg 32 j# data_out [31:0] $end
$upscope $end
$upscope $end
$upscope $end
$enddefinitions $end
#0
$dumpvars
bx j#
0i#
bx h#
bx g#
0f#
bx e#
bx d#
0c#
bx b#
b0 a#
b0 `#
b0 _#
bx ^#
bx ]#
bx \#
bx [#
bx Z#
bx Y#
bx X#
bx W#
bx V#
bx U#
bx T#
bx S#
bx R#
bx Q#
b100 P#
bx O#
bx N#
bx M#
bx L#
bx K#
bx J#
bx I#
0H#
bx G#
bx F#
0E#
bx D#
bx C#
0B#
bx A#
b100111 @#
bx ?#
bx >#
1=#
bx <#
bx ;#
b0 :#
b0 9#
b0 8#
bx 7#
bx 6#
bx 5#
bx 4#
bx 3#
bx 2#
bx 1#
bx 0#
bx /#
bx .#
bx -#
bx ,#
bx +#
bx *#
b11 )#
bx (#
0'#
bx &#
bx %#
bx $#
bx ##
bx "#
x!#
bx ~"
bx }"
bx |"
bx {"
bx z"
bx y"
bx x"
bx w"
bx v"
bx u"
bx t"
bx s"
bx r"
bx q"
bx p"
0o"
bx n"
bx m"
0l"
bx k"
bx j"
0i"
bx h"
bx g"
0f"
bx e"
bx d"
bx0 c"
bx b"
bx0 a"
bx `"
bx000000000000 _"
bx ^"
bx ]"
b0 \"
b0 ["
b0 Z"
bx Y"
bx X"
bx W"
bx V"
bx U"
bx T"
bx S"
bx R"
bx Q"
bx P"
bx O"
bx N"
bx M"
b10 L"
bx K"
bx J"
bx I"
bx H"
bx G"
bx F"
bx E"
bx D"
bx C"
bx B"
bx A"
bx @"
bx ?"
bx >"
bx ="
bx <"
x;"
bx :"
x9"
bx 8"
bx 7"
x6"
bx 5"
bx 4"
x3"
x2"
bx 1"
bx 0"
bx /"
bx ."
bx -"
bx ,"
bx +"
bx *"
bx )"
bx ("
bx '"
bx &"
bx %"
bx $"
0#"
bx ""
bx !"
0~
b0 }
b0 |
b0 {
bx z
bx y
bx x
bx w
bx v
bx u
bx t
bx s
bx r
bx q
bx p
bx o
b1 n
bx m
bx l
bx k
bx j
bx i
bx h
bx g
bx f
bx e
bx d
bx c
bx b
bx a
bx `
bx _
bx ^
bx ]
bx \
x[
bx Z
b100111 Y
bx X
b0 W
0V
1U
bx T
bx S
b0 R
b0 Q
b0 P
bx O
bx N
bx M
bx L
bx K
bx J
bx I
bx H
bx G
bx F
bx E
bx D
bx C
b0 B
bx A
bx @
b1000000000000000000000000 ?
bx >
x=
x<
bx ;
x:
bx 9
bx 8
bx 7
bx 6
bx 5
bx 4
bx 3
bx 2
bx 1
bx 0
bx /
bx .
bx -
b1 ,
b100000 +
bx *
bx )
bx (
x'
bx &
0%
0$
bx #
bx "
bx !
$end
#10
1$
#11
b1 P
b11111110000000010000000100010011 >
b11111110000000010000000100010011 C
b11111110000000010000000100010011 X
b11111110000000010000000100010011 `
b11111110000000010000000100010011 !"
b1 Q
b1000000000000000000000100 ?
b1000000000000000000000000 @
b1000000000000000000000000 A
b1000000000000000000000000 S
b1000000000000000000000000 ]
b1000000000000000000000000 $"
#17
b111100010000011111100000 E
b111111111111011111100010 D
b0 O
b11111111111111111110000000010000 J
b11111111111111111111111111100010 I
b11111111111111111111111111100000 H
b0 N
b10 M
b10 L
b1111111 G
b0 F
b10011 K
#20
0$
#30
b0 *
b0 a
b0 )"
b0 n"
b1000011111111111111111100 )
b1000011111111111111111100 b
b1000011111111111111111100 ("
b1000011111111111111111100 k"
b1111111 d
b0 c
b10011 f
b0 #
b0 k
b10 "
b10 j
b1 {
b1 |
b11111110000000010000000100010011 &
b11111110000000010000000100010011 e
b11111110000000010000000100010011 l
b11111110000000010000000100010011 *"
b11111110000000010000000100010011 e"
b1000000000000000000000000 h
b1000000000000000000000000 m
b1000000000000000000000000 +"
b1000000000000000000000000 h"
b11111110000000010000000100010011 _
b11111110000000010000000100010011 ""
b1000000000000000000000000 \
b1000000000000000000000000 %"
1$
#31
b100010010111000100011 >
b100010010111000100011 C
b100010010111000100011 X
b100010010111000100011 `
b100010010111000100011 !"
b1000000000000000000001000 ?
b1000000000000000000000100 @
b1000000000000000000000100 A
b1000000000000000000000100 S
b1000000000000000000000100 ]
b1000000000000000000000100 $"
#36
b111100010000011111100000 p
b111111111111011111100010 o
b0 z
b11111111111111111110000000010000 u
b11111111111111111111111111100010 t
b11111111111111111111111111100000 s
b0 y
b10 x
b10 w
b1111111 r
b0 q
b10011 v
#37
b1000000010010100000000100 E
b1000000000000000000100000 D
b1 O
b100010010 J
b11100 I
b1 H
b1 N
b11100 L
b0 G
b10 F
b100011 K
#40
0$
#50
b1000011111111111111011100 ;
b1000011111111111111011100 4"
b1000011111111111111011100 F"
b1000011111111111111011100 q"
b1000011111111111111011100 &#
b1000011111111111111111100 7"
b1000011111111111111111100 D"
02"
b0 J"
03"
b0 ="
b0 I"
b0 s"
b0 G#
b1000011111111111111111100 H"
b1000011111111111111111100 <"
b1000011111111111111111100 G"
b11111111111111111111111111100000 :"
b11111111111111111111111111100000 E"
b11111111111111111111111111100000 /"
b11111111111111111111111111100000 d"
0:
b0 9
b0 '"
b0 8
b0 &"
0<
b0 8"
b0 C"
19"
06"
b0 @"
b0 ]"
0[
0=
b0 d
b10 c
b100011 f
b1 #
b1 k
b11111111111111111111111111100000 b"
b11111111111111111111111111100010 `"
b11111110000000010000000000000000 _"
b11111111111111111111011111100010 c"
b11111111111100010000011111100000 a"
b10011 4
b0 .
b10 /
b1111111 ?"
b0 >"
b10011 B"
b1 Z"
b100010010111000100011 &
b100010010111000100011 e
b100010010111000100011 l
b100010010111000100011 *"
b100010010111000100011 e"
b1000000000000000000000100 h
b1000000000000000000000100 m
b1000000000000000000000100 +"
b1000000000000000000000100 h"
b11111110000000010000000100010011 7
b11111110000000010000000100010011 A"
b11111110000000010000000100010011 K"
b11111110000000010000000100010011 ^"
b11111110000000010000000100010011 t"
b11111110000000010000000100010011 A#
b1 ["
b100010010111000100011 _
b100010010111000100011 ""
b1000000000000000000000100 \
b1000000000000000000000100 %"
b11111110000000010000000100010011 ."
b11111110000000010000000100010011 g"
b1000000000000000000000000 -"
b1000000000000000000000000 M"
b1000000000000000000000000 j"
b1000000000000000000000000 u"
b1000000000000000000000000 D#
b1000011111111111111111100 1"
b1000011111111111111111100 m"
b0 0"
b0 p"
1$
#51
b1100000000011110010011 >
b1100000000011110010011 C
b1100000000011110010011 X
b1100000000011110010011 `
b1100000000011110010011 !"
b1000000000000000000001100 ?
b1000000000000000000001000 @
b1000000000000000000001000 A
b1000000000000000000001000 S
b1000000000000000000001000 ]
b1000000000000000000001000 $"
#55
b111100010000011111100000 O"
b111111111111011111100010 N"
b0 Y"
b11111111111111111110000000010000 T"
b11111111111111111111111111100010 S"
b11111111111111111111111111100000 R"
b0 X"
b10 W"
b10 V"
b1111111 Q"
b0 P"
b10011 U"
#56
b1000000010010100000000100 p
b1000000000000000000100000 o
b1 z
b100010010 u
b11100 t
b1 s
b1 y
b11100 w
b0 r
b10 q
b100011 v
#57
b1000000000000100000001010 E
b1000000000000100000010110 D
b11 O
b1100000000 J
b1111 I
b11 H
b11 N
b0 M
b1111 L
b0 F
b10011 K
#60
0$
#70
b1000011111111111111111000 ;
b1000011111111111111111000 4"
b1000011111111111111111000 F"
b1000011111111111111111000 q"
b1000011111111111111111000 &#
b1000011111111111111011100 7"
b1000011111111111111011100 D"
b11100 :"
b11100 E"
b1000011111111111111011100 H"
b1000011111111111111011100 <"
b1000011111111111111011100 G"
b1 @"
b1 ]"
b0 )
b0 b
b0 ("
b0 k"
b11100 /"
b11100 d"
b0 c
b10011 f
b11 #
b11 k
b0 "
b0 j
b1 b"
b11100 `"
b100010010000000000000 _"
b11100 c"
b10010100000000000 a"
b100011 4
b1 .
b0 ?"
b10 >"
b100011 B"
b1 8
b1 &"
b1100000000011110010011 &
b1100000000011110010011 e
b1100000000011110010011 l
b1100000000011110010011 *"
b1100000000011110010011 e"
b1000000000000000000001000 h
b1000000000000000000001000 m
b1000000000000000000001000 +"
b1000000000000000000001000 h"
b100010010111000100011 7
b100010010111000100011 A"
b100010010111000100011 K"
b100010010111000100011 ^"
b100010010111000100011 t"
b100010010111000100011 A#
b1000011111111111111011100 ##
b1000011111111111111011100 L#
b1000011111111111111011100 h#
b0 |"
b0 <#
b0 %#
b0 >#
b1 $#
0!#
b10011 3
b10 1
b0 -
b1 8#
b1 9#
b0 }"
b10011 "#
b1100000000011110010011 _
b1100000000011110010011 ""
b1000000000000000000001000 \
b1000000000000000000001000 %"
b100010010111000100011 ."
b100010010111000100011 g"
b1000000000000000000000100 -"
b1000000000000000000000100 M"
b1000000000000000000000100 j"
b1000000000000000000000100 u"
b1000000000000000000000100 D#
b1000011111111111111011100 5"
b1000011111111111111011100 r"
b1000011111111111111011100 {"
b1000011111111111111011100 (#
b1000011111111111111011100 ;#
b11111110000000010000000100010011 6
b11111110000000010000000100010011 y"
b11111110000000010000000100010011 +#
b11111110000000010000000100010011 C#
b11111110000000010000000100010011 J#
b11111110000000010000000100010011 b#
b1000000000000000000000000 w"
b1000000000000000000000000 *#
b1000000000000000000000000 F#
b1000000000000000000000000 K#
b1000000000000000000000000 e#
b0 z"
b0 I#
1$
#71
b111100010010011000100011 >
b111100010010011000100011 C
b111100010010011000100011 X
b111100010010011000100011 `
b111100010010011000100011 !"
b1000000000000000000010000 ?
b1000000000000000000001100 @
b1000000000000000000001100 A
b1000000000000000000001100 S
b1000000000000000000001100 ]
b1000000000000000000001100 $"
#74
b111100010000011111100000 -#
b111111111111011111100010 ,#
b0 7#
b11111111111111111110000000010000 2#
b11111111111111111111111111100010 1#
b11111111111111111111111111100000 0#
b0 6#
b10 5#
b10 4#
b1111111 /#
b0 .#
b10011 3#
#75
b1000000010010100000000100 O"
b1000000000000000000100000 N"
b1 Y"
b100010010 T"
b11100 S"
b1 R"
b1 X"
b11100 V"
b0 Q"
b10 P"
b100011 U"
#76
b1000000000000100000001010 p
b1000000000000100000010110 o
b11 z
b1100000000 u
b1111 t
b11 s
b11 y
b0 x
b1111 w
b0 q
b10011 v
#77
b1000000010010100000011010 E
b1000000000000000000011000 D
b1111 O
b111100010010 J
b1100 I
b1111 H
b1111 N
b10 M
b1100 L
b10 F
b100011 K
#80
0$
#90
13"
b11 ;
b11 4"
b11 F"
b11 q"
b11 &#
b11 :"
b11 E"
b0 @"
b0 ]"
b0 7"
b0 D"
b11 /"
b11 d"
b1000011111111111111111100 )
b1000011111111111111111100 b
b1000011111111111111111100 ("
b1000011111111111111111100 k"
b10 c
b100011 f
b1111 #
b1111 k
b10 "
b10 j
b11 b"
b1111 `"
b1100000000000000000000 _"
b100000001110 c"
b100000000010 a"
b10011 4
b11 .
b0 /
b0 >"
b10011 B"
b0 8
b0 &"
b111100010010011000100011 &
b111100010010011000100011 e
b111100010010011000100011 l
b111100010010011000100011 *"
b111100010010011000100011 e"
b1000000000000000000001100 h
b1000000000000000000001100 m
b1000000000000000000001100 +"
b1000000000000000000001100 h"
b1100000000011110010011 7
b1100000000011110010011 A"
b1100000000011110010011 K"
b1100000000011110010011 ^"
b1100000000011110010011 t"
b1100000000011110010011 A#
1!#
b1000011111111111111111000 ##
b1000011111111111111111000 L#
b1000011111111111111111000 h#
1'
b0 H"
b0 <"
b0 G"
b100011 3
b11100 1
b1 -
b10 }"
b100011 "#
b10011 2
b10 0
b1 _#
b10011 g
b10 !
b10 i
b1 `#
b111100010010011000100011 _
b111100010010011000100011 ""
b1000000000000000000001100 \
b1000000000000000000001100 %"
b1100000000011110010011 ."
b1100000000011110010011 g"
b1000000000000000000001000 -"
b1000000000000000000001000 M"
b1000000000000000000001000 j"
b1000000000000000000001000 u"
b1000000000000000000001000 D#
b0 1"
b0 m"
b1000011111111111111111000 5"
b1000011111111111111111000 r"
b1000011111111111111111000 {"
b1000011111111111111111000 (#
b1000011111111111111111000 ;#
b100010010111000100011 6
b100010010111000100011 y"
b100010010111000100011 +#
b100010010111000100011 C#
b100010010111000100011 J#
b100010010111000100011 b#
b1000000000000000000000100 w"
b1000000000000000000000100 *#
b1000000000000000000000100 F#
b1000000000000000000000100 K#
b1000000000000000000000100 e#
b11111110000000010000000100010011 5
b11111110000000010000000100010011 ^
b11111110000000010000000100010011 O#
b11111110000000010000000100010011 R#
b11111110000000010000000100010011 d#
b1000000000000000000000000 N#
b1000000000000000000000000 Q#
b1000000000000000000000000 g#
b1000011111111111111011100 (
b1000011111111111111011100 Z
b1000011111111111111011100 ,"
b1000011111111111111011100 v"
b1000011111111111111011100 M#
b1000011111111111111011100 j#
1$
#91
b1000000000011110010011 >
b1000000000011110010011 C
b1000000000011110010011 X
b1000000000011110010011 `
b1000000000011110010011 !"
b1000000000000000000010100 ?
b1000000000000000000010000 @
b1000000000000000000010000 A
b1000000000000000000010000 S
b1000000000000000000010000 ]
b1000000000000000000010000 $"
#93
b111100010000011111100000 T#
b111111111111011111100010 S#
b0 ^#
b11111111111111111110000000010000 Y#
b11111111111111111111111111100010 X#
b11111111111111111111111111100000 W#
b0 ]#
b10 \#
b10 [#
b1111111 V#
b0 U#
b10011 Z#
#94
b1000000010010100000000100 -#
b1000000000000000000100000 ,#
b1 7#
b100010010 2#
b11100 1#
b1 0#
b1 6#
b11100 4#
b0 /#
b10 .#
b100011 3#
#95
b1000000000000100000001010 O"
b1000000000000100000010110 N"
b11 Y"
b1100000000 T"
b1111 S"
b11 R"
b11 X"
b0 W"
b1111 V"
b0 P"
b10011 U"
#96
b1000000010010100000011010 p
b1000000000000000000011000 o
b1111 z
b111100010010 u
b1100 t
b1111 s
b1111 y
b10 x
b1100 w
b10 q
b100011 v
#97
b1000000000000000000010010 E
b1000000000000100000011110 D
b10 O
b1000000000 J
b1111 I
b10 H
b10 N
b0 M
b1111 L
b0 F
b10011 K
#100
b1000011111111111111011100 )
b1000011111111111111011100 b
b1000011111111111111011100 ("
b1000011111111111111011100 k"
0$
#110
b1000011111111111111101000 ;
b1000011111111111111101000 4"
b1000011111111111111101000 F"
b1000011111111111111101000 q"
b1000011111111111111101000 &#
b1100 :"
b1100 E"
b1 @"
b1 ]"
b1000011111111111111011100 7"
b1000011111111111111011100 D"
b1000011111111111111011100 *
b1000011111111111111011100 a
b1000011111111111111011100 )"
b1000011111111111111011100 n"
b0 )
b0 b
b0 ("
b0 k"
b1100 /"
b1100 d"
b0 c
b10011 f
b10 #
b10 k
b0 "
b0 j
b1111 b"
b1100 `"
b111100010010000000000000 _"
b1100 c"
b10010100000001110 a"
b100011 4
b1111 .
b10 /
b10 >"
b100011 B"
b1000000000011110010011 &
b1000000000011110010011 e
b1000000000011110010011 l
b1000000000011110010011 *"
b1000000000011110010011 e"
b1000000000000000000010000 h
b1000000000000000000010000 m
b1000000000000000000010000 +"
b1000000000000000000010000 h"
b111100010010011000100011 7
b111100010010011000100011 A"
b111100010010011000100011 K"
b111100010010011000100011 ^"
b111100010010011000100011 t"
b111100010010011000100011 A#
0!#
b11 ##
b11 L#
b11 h#
0'
b1000011111111111111011100 H"
03"
b1000011111111111111011100 <"
b1000011111111111111011100 G"
b10011 3
b1111 1
b11 -
b0 }"
b10011 "#
b100011 2
b11100 0
b100011 g
b11100 !
b11100 i
b1000000000011110010011 _
b1000000000011110010011 ""
b1000000000000000000010000 \
b1000000000000000000010000 %"
b111100010010011000100011 ."
b111100010010011000100011 g"
b1000000000000000000001100 -"
b1000000000000000000001100 M"
b1000000000000000000001100 j"
b1000000000000000000001100 u"
b1000000000000000000001100 D#
b1000011111111111111011100 1"
b1000011111111111111011100 m"
b11 5"
b11 r"
b11 {"
b11 (#
b11 ;#
b1100000000011110010011 6
b1100000000011110010011 y"
b1100000000011110010011 +#
b1100000000011110010011 C#
b1100000000011110010011 J#
b1100000000011110010011 b#
b1000000000000000000001000 w"
b1000000000000000000001000 *#
b1000000000000000000001000 F#
b1000000000000000000001000 K#
b1000000000000000000001000 e#
b100010010111000100011 5
b100010010111000100011 ^
b100010010111000100011 O#
b100010010111000100011 R#
b100010010111000100011 d#
b1000000000000000000000100 N#
b1000000000000000000000100 Q#
b1000000000000000000000100 g#
b1000011111111111111111000 (
b1000011111111111111111000 Z
b1000011111111111111111000 ,"
b1000011111111111111111000 v"
b1000011111111111111111000 M#
b1000011111111111111111000 j#
1$
#111
b111100010010010000100011 >
b111100010010010000100011 C
b111100010010010000100011 X
b111100010010010000100011 `
b111100010010010000100011 !"
b1000000000000000000011000 ?
b1000000000000000000010100 @
b1000000000000000000010100 A
b1000000000000000000010100 S
b1000000000000000000010100 ]
b1000000000000000000010100 $"
#113
b1000000010010100000000100 T#
b1000000000000000000100000 S#
b1 ^#
b100010010 Y#
b11100 X#
b1 W#
b1 ]#
b11100 [#
b0 V#
b10 U#
b100011 Z#
