PROJ/PD4/mem-wb/mem-wb-BubbleSort.vcd
$date
	Thu Jun 18 21:02:37 2020
$end
$version
	Icarus Verilog
$end
$timescale
	1s
$end
$scope module dut $end
$scope module stage_fet $end
$var wire 32 ! alu [31:0] $end
$var wire 1 " clock $end
$var wire 1 # pc_sel $end
$var wire 32 $ instr_out [31:0] $end
$var reg 32 % pc_next [31:0] $end
$var reg 32 & pc_out [31:0] $end
$scope module imem $end
$var wire 32 ' address [31:0] $end
$var wire 1 " clock $end
$var wire 32 ( data_in [31:0] $end
$var wire 1 ) load_instrs $end
$var wire 1 * read_write $end
$var wire 2 + wr_width [1:0] $end
$var reg 32 , data_out [31:0] $end
$var integer 32 - i [31:0] $end
$upscope $end
$upscope $end
$upscope $end
$scope module dut $end
$scope module stage_dec $end
$var wire 1 " clock $end
$var wire 32 . instr_out [31:0] $end
$var wire 32 / wb [31:0] $end
$var wire 5 0 rs2 [4:0] $end
$var wire 5 1 rs1 [4:0] $end
$var wire 5 2 rd [4:0] $end
$var wire 32 3 instr [31:0] $end
$var wire 32 4 data_rs2 [31:0] $end
$var wire 32 5 data_rs1 [31:0] $end
$var wire 1 6 br_lt $end
$var wire 1 7 br_eq $end
$var reg 1 8 a_sel $end
$var reg 4 9 alu_sel [3:0] $end
$var reg 1 : b_sel $end
$var reg 1 ; br_un $end
$var reg 3 < funct3 [2:0] $end
$var reg 7 = funct7 [6:0] $end
$var reg 3 > imm_sel [2:0] $end
$var reg 1 ? mem_rw $end
$var reg 7 @ opcode [6:0] $end
$var reg 1 # pc_sel $end
$var reg 1 A reg_wen $end
$var reg 2 B wb_sel [1:0] $end
$scope module reggie $end
$var wire 5 C addr_rd [4:0] $end
$var wire 5 D addr_rs1 [4:0] $end
$var wire 5 E addr_rs2 [4:0] $end
$var wire 1 " clock $end
$var wire 32 F data_rs1 [31:0] $end
$var wire 32 G data_rs2 [31:0] $end
$var wire 1 A write_enable $end
$var wire 32 H data_rd [31:0] $end
$var integer 32 I i [31:0] $end
$var integer 32 J sp_init_pos_cnt [31:0] $end
$upscope $end
$upscope $end
$upscope $end
$scope module dut $end
$scope module stage_ex $end
$var wire 1 8 a_sel $end
$var wire 4 K alu_sel [3:0] $end
$var wire 1 : b_sel $end
$var wire 1 ; br_un $end
$var wire 32 L data_rs1 [31:0] $end
$var wire 32 M data_rs2 [31:0] $end
$var wire 3 N imm_sel [2:0] $end
$var wire 32 O instr [31:0] $end
$var wire 32 P instr_out [31:0] $end
$var wire 32 Q pc [31:0] $end
$var wire 32 R imm [31:0] $end
$var wire 1 6 br_lt $end
$var wire 1 7 br_eq $end
$var wire 32 S b_sel_out [31:0] $end
$var wire 32 T alu_out [31:0] $end
$var wire 32 U a_sel_out [31:0] $end
$scope module alu $end
$var wire 4 V alu_sel [3:0] $end
$var wire 32 W in_a [31:0] $end
$var wire 32 X in_b [31:0] $end
$var reg 32 Y alu_out [31:0] $end
$upscope $end
$scope module bcmp $end
$var wire 1 ; br_un $end
$var wire 32 Z rs1 [31:0] $end
$var wire 32 [ rs1_s [31:0] $end
$var wire 32 \ rs2 [31:0] $end
$var wire 32 ] rs2_s [31:0] $end
$var wire 1 6 br_lt $end
$var wire 1 7 br_eq $end
$upscope $end
$scope module igen $end
$var wire 3 ^ imm_sel [2:0] $end
$var wire 32 _ instr [31:0] $end
$var wire 32 ` imm_u [31:0] $end
$var wire 32 a imm_s [31:0] $end
$var wire 32 b imm_j [31:0] $end
$var wire 32 c imm_i [31:0] $end
$var wire 32 d imm_b [31:0] $end
$var wire 32 e imm [31:0] $end
$upscope $end
$upscope $end
$upscope $end
$scope module dut $end
$scope module stage_mem $end
$var wire 32 f alu [31:0] $end
$var wire 1 " clock $end
$var wire 32 g instr [31:0] $end
$var wire 32 h instr_out [31:0] $end
$var wire 32 i mem_in [31:0] $end
$var wire 1 ? mem_rw $end
$var wire 32 j pc [31:0] $end
$var wire 2 k wb_sel [1:0] $end
$var wire 7 l opcode [6:0] $end
$var wire 32 m mem_out [31:0] $end
$var wire 3 n funct3 [2:0] $end
$var reg 32 o mem_out_masked [31:0] $end
$var reg 32 p wb [31:0] $end
$var reg 2 q wr_width [1:0] $end
$scope module dmem $end
$var wire 32 r address [31:0] $end
$var wire 1 " clock $end
$var wire 32 s data_in [31:0] $end
$var wire 1 t load_instrs $end
$var wire 1 ? read_write $end
$var wire 2 u wr_width [1:0] $end
$var reg 32 v data_out [31:0] $end
$var integer 32 w i [31:0] $end
$upscope $end
$upscope $end
$upscope $end
$scope module dut $end
$scope module stage_wb $end
$var wire 32 x instr [31:0] $end
$var wire 32 y instr_out [31:0] $end
$var wire 32 z wb_in [31:0] $end
$var wire 32 { wb_out [31:0] $end
$upscope $end
$upscope $end
$enddefinitions $end
#0
$dumpvars
bx {
bx z
bz y
bz x
bx w
bx v
bx u
0t
bx s
bx r
bx q
bx p
bx o
bx n
bx m
bx l
bx k
bx j
bx i
bx h
bx g
bx f
bx e
bx0 d
bx c
bx0 b
bx a
bx `
bx _
bx ^
bx ]
bx \
bx [
bx Z
bx Y
bx X
bx W
bx V
bx U
bx T
bx S
bx R
bx Q
bx P
bx O
bx N
bx M
bx L
bx K
b1 J
b100000 I
bx H
bx G
bx F
bx E
bx D
bx C
bx B
xA
bx @
x?
bx >
bx =
bx <
x;
x:
bx 9
x8
x7
x6
bx 5
bx 4
bx 3
bx 2
bx 1
bx 0
bx /
bx .
b10011010 -
bx ,
b0 +
0*
1)
bx (
bx '
bx &
b1000000000000000000000000 %
bx $
x#
0"
bx !
$end
#10
b1000011111111111111001111 !
b1000011111111111111001111 T
b1000011111111111111001111 Y
b1000011111111111111001111 f
b1000011111111111111001111 r
b11111111111111111111111111010000 S
b11111111111111111111111111010000 X
b11111111111111111111111111010000 R
b11111111111111111111111111010000 e
b0 q
b0 u
b1 B
b1 k
1A
0?
b0 9
b0 K
b0 V
1:
08
b0 >
b0 N
b0 ^
0#
06
b1000011111111111111111111 U
b1000011111111111111111111 W
b0 ]
07
b0 4
b0 G
b0 M
b0 \
b0 i
b0 s
b10000 0
b10000 E
b1000011111111111111111111 [
b1000011111111111111111111 5
b1000011111111111111111111 F
b1000011111111111111111111 L
b1000011111111111111111111 Z
b10 1
b10 D
b10 2
b10 C
b10011 l
b0 n
b11111111111111111111111111010000 c
b11111111111111111111111111000010 a
b11111111111111111101000000010000 `
b11111111111111111111011111000010 d
b11111111111100010000011111010000 b
b1111110 =
b0 <
b10011 @
b11111101000000010000000100010011 h
b11111101000000010000000100010011 P
b11111101000000010000000100010011 g
b11111101000000010000000100010011 .
b11111101000000010000000100010011 O
b11111101000000010000000100010011 _
b11111101000000010000000100010011 $
b11111101000000010000000100010011 ,
b11111101000000010000000100010011 3
b1000011111111111111001111 /
b1000011111111111111001111 H
b1000011111111111111001111 {
b1000011111111111111001111 p
b1000011111111111111001111 z
b1000000000000000000000000 &
b1000000000000000000000000 '
b1000000000000000000000000 Q
b1000000000000000000000000 j
1"
#11
b1000000000000000000000100 %
#20
0"
#30
b1000011111111111111111011 /
b1000011111111111111111011 H
b1000011111111111111111011 {
b1000011111111111111111011 p
b1000011111111111111111011 z
b1000011111111111111111011 !
b1000011111111111111111011 T
b1000011111111111111111011 Y
b1000011111111111111111011 f
b1000011111111111111111011 r
0A
1?
b1 >
b1 N
b1 ^
b101100 S
b101100 X
b101100 R
b101100 e
b1 0
b1 E
b1100 2
b1100 C
b100011 l
b10 n
b100001 c
b101100 a
b10000100010010 `
b101100 d
b10010100000100000 b
b1 =
b10 <
b100011 @
b1000011111111111111001111 U
b1000011111111111111001111 W
b10000100010010011000100011 h
b10000100010010011000100011 P
b10000100010010011000100011 g
b10000100010010011000100011 .
b10000100010010011000100011 O
b10000100010010011000100011 _
b10000100010010011000100011 $
b10000100010010011000100011 ,
b10000100010010011000100011 3
b1000011111111111111001111 [
b1000011111111111111001111 5
b1000011111111111111001111 F
b1000011111111111111001111 L
b1000011111111111111001111 Z
b1000000000000000000000100 &
b1000000000000000000000100 '
b1000000000000000000000100 Q
b1000000000000000000000100 j
1"
#31
b1000000000000000000001000 %
#40
0"
#50
b1000000000000000000001111 /
b1000000000000000000001111 H
b1000000000000000000001111 {
b1000000000000000000001111 p
b1000000000000000000001111 z
b1000000000000000000001111 !
b1000000000000000000001111 T
b1000000000000000000001111 Y
b1000000000000000000001111 f
b1000000000000000000001111 r
1A
0?
b1010 9
b1010 K
b1010 V
b10 >
b10 N
b10 ^
b1000000000000 S
b1000000000000 X
b1000000000000 R
b1000000000000 e
b0 U
b0 W
b10000 0
b10000 E
b0 [
17
b0 5
b0 F
b0 L
b0 Z
b0 1
b0 D
b1111 2
b1111 C
b110111 l
b0 n
b10000 c
b1111 a
b1000000000000 `
b100000001110 d
b10000 b
b0 =
b0 <
b110111 @
b1000000000000011110110111 h
b1000000000000011110110111 P
b1000000000000011110110111 g
b1000000000000011110110111 .
b1000000000000011110110111 O
b1000000000000011110110111 _
b1000000000000011110110111 $
b1000000000000011110110111 ,
b1000000000000011110110111 3
b1000000000000000000001000 &
b1000000000000000000001000 '
b1000000000000000000001000 Q
b1000000000000000000001000 j
1"
#51
b1000000000000000000001100 %
#60
0"
#70
bx /
bx H
bx {
bx p
bx z
b1000000000000001001010111 !
b1000000000000001001010111 T
b1000000000000001001010111 Y
b1000000000000001001010111 f
b1000000000000001001010111 r
b10 B
b10 k
b0 9
b0 K
b0 V
b0 >
b0 N
b0 ^
b1001001000 S
b1001001000 X
b1001001000 R
b1001001000 e
b1000000000000000000001111 U
b1000000000000000000001111 W
b1000 0
b1000 E
b1000000000000000000001111 [
07
b1000000000000000000001111 5
b1000000000000000000001111 F
b1000000000000000000001111 L
b1000000000000000000001111 Z
b1111 1
b1111 D
b10001 2
b10001 C
b11 l
b10 n
b1001001000 c
b1001010001 a
b100100100001111010 `
b101001010000 d
b1111010001001001000 b
b10010 =
b10 <
b11 @
b100100100001111010100010000011 h
b100100100001111010100010000011 P
b100100100001111010100010000011 g
b100100100001111010100010000011 .
b100100100001111010100010000011 O
b100100100001111010100010000011 _
b100100100001111010100010000011 $
b100100100001111010100010000011 ,
b100100100001111010100010000011 3
b1000000000000000000001100 &
b1000000000000000000001100 '
b1000000000000000000001100 Q
b1000000000000000000001100 j
1"
#71
b1000000000000000000010000 %
#80
0"
#90
b1000000000000001001010111 /
b1000000000000001001010111 H
b1000000000000001001010111 {
b1000000000000001001010111 p
b1000000000000001001010111 z
b1 B
b1 k
b1110 2
b1110 C
b10011 l
b0 n
b1001001110 a
b100100100001111000 `
b1001001110 d
b1111000001001001000 b
b0 <
b10011 @
b100100100001111000011100010011 h
b100100100001111000011100010011 P
b100100100001111000011100010011 g
b100100100001111000011100010011 .
b100100100001111000011100010011 O
b100100100001111000011100010011 _
b100100100001111000011100010011 $
b100100100001111000011100010011 ,
b100100100001111000011100010011 3
b1000000000000000000010000 &
b1000000000000000000010000 '
b1000000000000000000010000 Q
b1000000000000000000010000 j
1"
#91
b1000000000000000000010100 %
#100
0"
#110
bx /
bx H
bx {
bx p
bx z
b1000000000000001001011011 !
b1000000000000001001011011 T
b1000000000000001001011011 Y
b1000000000000001001011011 f
b1000000000000001001011011 r
b10 B
b10 k
b100 S
b100 X
b1000000000000001001010111 U
b1000000000000001001010111 W
b100 R
b100 e
b100 0
b100 E
b1000000000000001001010111 [
b1000000000000001001010111 5
b1000000000000001001010111 F
b1000000000000001001010111 L
b1000000000000001001010111 Z
b1110 1
b1110 D
b10000 2
b10000 C
b11 l
b10 n
b100 c
b10000 a
b10001110010 `
b10000 d
b1110010000000000100 b
b0 =
b10 <
b11 @
b10001110010100000000011 h
b10001110010100000000011 P
b10001110010100000000011 g
b10001110010100000000011 .
b10001110010100000000011 O
b10001110010100000000011 _
b10001110010100000000011 $
b10001110010100000000011 ,
b10001110010100000000011 3
b1000000000000000000010100 &
b1000000000000000000010100 '
b1000000000000000000010100 Q
b1000000000000000000010100 j
1"
#111
b1000000000000000000011000 %
#120
0"
#130
b1000000000000001001010111 /
b1000000000000001001010111 H
b1000000000000001001010111 {
b1000000000000001001010111 p
b1000000000000001001010111 z
b1000000000000001001010111 !
b1000000000000001001010111 T
b1000000000000001001010111 Y
b1000000000000001001010111 f
b1000000000000001001010111 r
b1 B
b1 k
b1001001000 S
b1001001000 X
b1000000000000000000001111 U
b1000000000000000000001111 W
b1001001000 R
b1001001000 e
b1000 0
b1000 E
b1000000000000000000001111 [
b1000000000000000000001111 5
b1000000000000000000001111 F
b1000000000000000000001111 L
b1000000000000000000001111 Z
b1111 1
b1111 D
b1110 2
b1110 C
b10011 l
b0 n
b1001001000 c
b1001001110 a
b100100100001111000 `
b1001001110 d
b1111000001001001000 b
b10010 =
b0 <
b10011 @
b100100100001111000011100010011 h
b100100100001111000011100010011 P
b100100100001111000011100010011 g
b100100100001111000011100010011 .
b100100100001111000011100010011 O
b100100100001111000011100010011 _
b100100100001111000011100010011 $
b100100100001111000011100010011 ,
b100100100001111000011100010011 3
b1000000000000000000011000 &
b1000000000000000000011000 '
b1000000000000000000011000 Q
b1000000000000000000011000 j
1"
#131
b1000000000000000000011100 %
#140
0"
#150
bx /
bx H
bx {
bx p
bx z
b1000000000000001001011111 !
b1000000000000001001011111 T
b1000000000000001001011111 Y
b1000000000000001001011111 f
b1000000000000001001011111 r
b10 B
b10 k
b1000 S
b1000 X
b1000000000000001001010111 U
b1000000000000001001010111 W
b1000 R
b1000 e
b1000000000000001001010111 [
b1000000000000001001010111 5
b1000000000000001001010111 F
b1000000000000001001010111 L
b1000000000000001001010111 Z
b1110 1
b1110 D
b1010 2
b1010 C
b11 l
b10 n
b1000 c
b1010 a
b100001110010 `
b1010 d
b1110010000000001000 b
b0 =
b10 <
b11 @
b100001110010010100000011 h
b100001110010010100000011 P
b100001110010010100000011 g
b100001110010010100000011 .
b100001110010010100000011 O
b100001110010010100000011 _
b100001110010010100000011 $
b100001110010010100000011 ,
b100001110010010100000011 3
b1000000000000000000011100 &
b1000000000000000000011100 '
b1000000000000000000011100 Q
b1000000000000000000011100 j
1"
#151
b1000000000000000000100000 %
#160
0"
#170
b1000000000000001001010111 /
b1000000000000001001010111 H
b1000000000000001001010111 {
b1000000000000001001010111 p
b1000000000000001001010111 z
b1000000000000001001010111 !
b1000000000000001001010111 T
b1000000000000001001010111 Y
b1000000000000001001010111 f
b1000000000000001001010111 r
b1 B
b1 k
b1001001000 S
b1001001000 X
b1000000000000000000001111 U
b1000000000000000000001111 W
b1001001000 R
b1001001000 e
b1000000000000000000001111 [
b1000000000000000000001111 5
b1000000000000000000001111 F
b1000000000000000000001111 L
b1000000000000000000001111 Z
b1111 1
b1111 D
b1110 2
b1110 C
b10011 l
b0 n
b1001001000 c
b1001001110 a
b100100100001111000 `
b1001001110 d
b1111000001001001000 b
b10010 =
b0 <
b10011 @
b100100100001111000011100010011 h
b100100100001111000011100010011 P
b100100100001111000011100010011 g
b100100100001111000011100010011 .
b100100100001111000011100010011 O
b100100100001111000011100010011 _
b100100100001111000011100010011 $
b100100100001111000011100010011 ,
b100100100001111000011100010011 3
b1000000000000000000100000 &
b1000000000000000000100000 '
b1000000000000000000100000 Q
b1000000000000000000100000 j
1"
#171
b1000000000000000000100100 %
#180
0"
#190
bx /
bx H
bx {
bx p
bx z
b1000000000000001001100011 !
b1000000000000001001100011 T
b1000000000000001001100011 Y
b1000000000000001001100011 f
b1000000000000001001100011 r
b10 B
b10 k
b1100 S
b1100 X
b1000000000000001001010111 U
b1000000000000001001010111 W
b1100 R
b1100 e
b1100 0
b1100 E
b1000000000000001001010111 [
b1000000000000001001010111 5
b1000000000000001001010111 F
b1000000000000001001010111 L
b1000000000000001001010111 Z
b1110 1
b1110 D
b1011 2
b1011 C
b11 l
b10 n
b1100 c
b1011 a
b110001110010 `
b100000001010 d
b1110010000000001100 b
b0 =
b10 <
b11 @
b110001110010010110000011 h
b110001110010010110000011 P
b110001110010010110000011 g
b110001110010010110000011 .
b110001110010010110000011 O
b110001110010010110000011 _
b110001110010010110000011 $
b110001110010010110000011 ,
b110001110010010110000011 3
b1000000000000000000100100 &
b1000000000000000000100100 '
b1000000000000000000100100 Q
b1000000000000000000100100 j
1"
#191
b1000000000000000000101000 %
#200
0"
#210
b1000000000000001001010111 /
b1000000000000001001010111 H
b1000000000000001001010111 {
b1000000000000001001010111 p
b1000000000000001001010111 z
b1000000000000001001010111 !
b1000000000000001001010111 T
b1000000000000001001010111 Y
b1000000000000001001010111 f
b1000000000000001001010111 r
b1 B
b1 k
b1001001000 S
b1001001000 X
b1000000000000000000001111 U
b1000000000000000000001111 W
b1001001000 R
b1001001000 e
b1000 0
b1000 E
b1000000000000000000001111 [
b1000000000000000000001111 5
b1000000000000000000001111 F
b1000000000000000000001111 L
b1000000000000000000001111 Z
b1111 1
b1111 D
b1110 2
b1110 C
b10011 l
b0 n
b1001001000 c
b1001001110 a
b100100100001111000 `
b1001001110 d
b1111000001001001000 b
b10010 =
b0 <
b10011 @
b100100100001111000011100010011 h
b100100100001111000011100010011 P
b100100100001111000011100010011 g
b100100100001111000011100010011 .
b100100100001111000011100010011 O
b100100100001111000011100010011 _
b100100100001111000011100010011 $
b100100100001111000011100010011 ,
b100100100001111000011100010011 3
b1000000000000000000101000 &
b1000000000000000000101000 '
b1000000000000000000101000 Q
b1000000000000000000101000 j
1"
#211
b1000000000000000000101100 %
#220
0"
#230
bx /
bx H
bx {
bx p
bx z
b1000000000000001001100111 !
b1000000000000001001100111 T
b1000000000000001001100111 Y
b1000000000000001001100111 f
b1000000000000001001100111 r
b10 B
b10 k
b10000 S
b10000 X
x6
b1000000000000001001010111 U
b1000000000000001001010111 W
b10000 R
b10000 e
bx ]
x7
bx 4
bx G
bx M
bx \
bx i
bx s
b10000 0
b10000 E
b1000000000000001001010111 [
b1000000000000001001010111 5
b1000000000000001001010111 F
b1000000000000001001010111 L
b1000000000000001001010111 Z
b1110 1
b1110 D
b1100 2
b1100 C
b11 l
b10 n
b10000 c
b1100 a
b1000001110010 `
b1100 d
b1110010000000010000 b
b0 =
b10 <
b11 @
b1000001110010011000000011 h
b1000001110010011000000011 P
b1000001110010011000000011 g
b1000001110010011000000011 .
b1000001110010011000000011 O
b1000001110010011000000011 _
b1000001110010011000000011 $
b1000001110010011000000011 ,
b1000001110010011000000011 3
b1000000000000000000101100 &
b1000000000000000000101100 '
b1000000000000000000101100 Q
b1000000000000000000101100 j
1"
#231
b1000000000000000000110000 %
#240
0"
#250
b1000000000000001001010111 /
b1000000000000001001010111 H
b1000000000000001001010111 {
b1000000000000001001010111 p
b1000000000000001001010111 z
b1000000000000001001010111 !
b1000000000000001001010111 T
b1000000000000001001010111 Y
b1000000000000001001010111 f
b1000000000000001001010111 r
b1 B
b1 k
b1001001000 S
b1001001000 X
06
b1000000000000000000001111 U
b1000000000000000000001111 W
b1001001000 R
b1001001000 e
b0 ]
07
b0 4
b0 G
b0 M
b0 \
b0 i
b0 s
b1000 0
b1000 E
b1000000000000000000001111 [
b1000000000000000000001111 5
b1000000000000000000001111 F
b1000000000000000000001111 L
b1000000000000000000001111 Z
b1111 1
b1111 D
b1110 2
b1110 C
b10011 l
b0 n
b1001001000 c
b1001001110 a
b100100100001111000 `
b1001001110 d
b1111000001001001000 b
b10010 =
b0 <
b10011 @
b100100100001111000011100010011 h
b100100100001111000011100010011 P
b100100100001111000011100010011 g
b100100100001111000011100010011 .
b100100100001111000011100010011 O
b100100100001111000011100010011 _
b100100100001111000011100010011 $
b100100100001111000011100010011 ,
b100100100001111000011100010011 3
b1000000000000000000110000 &
b1000000000000000000110000 '
b1000000000000000000110000 Q
b1000000000000000000110000 j
1"
#251
b1000000000000000000110100 %
#260
0"
#270
bx /
bx H
bx {
bx p
bx z
b1000000000000001001101011 !
b1000000000000001001101011 T
b1000000000000001001101011 Y
b1000000000000001001101011 f
b1000000000000001001101011 r
b10 B
b10 k
b10100 S
b10100 X
b1000000000000001001010111 U
b1000000000000001001010111 W
b10100 R
b10100 e
b10100 0
b10100 E
b1000000000000001001010111 [
b1000000000000001001010111 5
b1000000000000001001010111 F
b1000000000000001001010111 L
b1000000000000001001010111 Z
b1110 1
b1110 D
b1101 2
b1101 C
b11 l
b10 n
b10100 c
b1101 a
b1010001110010 `
b100000001100 d
b1110010000000010100 b
b0 =
b10 <
b11 @
b1010001110010011010000011 h
b1010001110010011010000011 P
b1010001110010011010000011 g
b1010001110010011010000011 .
b1010001110010011010000011 O
b1010001110010011010000011 _
b1010001110010011010000011 $
b1010001110010011010000011 ,
b1010001110010011010000011 3
b1000000000000000000110100 &
b1000000000000000000110100 '
b1000000000000000000110100 Q
b1000000000000000000110100 j
1"
#271
b1000000000000000000111000 %
#280
0"
#290
b1000000000000001001010111 /
b1000000000000001001010111 H
b1000000000000001001010111 {
b1000000000000001001010111 p
b1000000000000001001010111 z
b1000000000000001001010111 !
b1000000000000001001010111 T
b1000000000000001001010111 Y
b1000000000000001001010111 f
b1000000000000001001010111 r
b1 B
b1 k
b1001001000 S
b1001001000 X
b1000000000000000000001111 U
b1000000000000000000001111 W
b1001001000 R
b1001001000 e
b1000 0
b1000 E
b1000000000000000000001111 [
b1000000000000000000001111 5
b1000000000000000000001111 F
b1000000000000000000001111 L
b1000000000000000000001111 Z
b1111 1
b1111 D
b1110 2
b1110 C
b10011 l
b0 n
b1001001000 c
b1001001110 a
b100100100001111000 `
b1001001110 d
b1111000001001001000 b
b10010 =
b0 <
b10011 @
b100100100001111000011100010011 h
b100100100001111000011100010011 P
b100100100001111000011100010011 g
b100100100001111000011100010011 .
b100100100001111000011100010011 O
b100100100001111000011100010011 _
b100100100001111000011100010011 $
b100100100001111000011100010011 ,
b100100100001111000011100010011 3
b1000000000000000000111000 &
b1000000000000000000111000 '
b1000000000000000000111000 Q
b1000000000000000000111000 j
1"
#291
b1000000000000000000111100 %
#300
0"
#310
bx /
bx H
bx {
bx p
bx z
b1000000000000001001101111 !
b1000000000000001001101111 T
b1000000000000001001101111 Y
b1000000000000001001101111 f
b1000000000000001001101111 r
b10 B
b10 k
b11000 S
b11000 X
b1000000000000001001010111 U
b1000000000000001001010111 W
b11000 R
b11000 e
b11000 0
b11000 E
b1000000000000001001010111 [
b1000000000000001001010111 5
b1000000000000001001010111 F
b1000000000000001001010111 L
b1000000000000001001010111 Z
b1110 1
b1110 D
b11 l
b10 n
b11000 c
b1110 a
b1100001110010 `
b1110 d
b1110010000000011000 b
b0 =
b10 <
b11 @
b1100001110010011100000011 h
b1100001110010011100000011 P
b1100001110010011100000011 g
b1100001110010011100000011 .
b1100001110010011100000011 O
b1100001110010011100000011 _
b1100001110010011100000011 $
b1100001110010011100000011 ,
b1100001110010011100000011 3
b1000000000000000000111100 &
b1000000000000000000111100 '
b1000000000000000000111100 Q
b1000000000000000000111100 j
1"
#311
b1000000000000000001000000 %
#320
0"
#330
b1000000000000001001010111 /
b1000000000000001001010111 H
b1000000000000001001010111 {
b1000000000000001001010111 p
b1000000000000001001010111 z
b1000000000000001001010111 !
b1000000000000001001010111 T
b1000000000000001001010111 Y
b1000000000000001001010111 f
b1000000000000001001010111 r
b1 B
b1 k
b1001001000 S
b1001001000 X
b1001001000 R
b1001001000 e
b1000 0
b1000 E
b1111 1
b1111 D
b1111 2
b1111 C
b10011 l
b0 n
b1001001000 c
b1001001111 a
b100100100001111000 `
b101001001110 d
b1111000001001001000 b
b1000000000000000000001111 U
b1000000000000000000001111 W
b10010 =
b0 <
b10011 @
06
b100100100001111000011110010011 h
b100100100001111000011110010011 P
b100100100001111000011110010011 g
b100100100001111000011110010011 .
b100100100001111000011110010011 O
b100100100001111000011110010011 _
b100100100001111000011110010011 $
b100100100001111000011110010011 ,
b100100100001111000011110010011 3
b1000000000000000000001111 [
07
b1000000000000000000001111 5
b1000000000000000000001111 F
b1000000000000000000001111 L
b1000000000000000000001111 Z
b1000000000000000001000000 &
b1000000000000000001000000 '
b1000000000000000001000000 Q
b1000000000000000001000000 j
1"
#331
b1000000000000000001000100 %
#340
0"
#350
bx /
bx H
bx {
bx p
bx z
b1000000000000001001110011 !
b1000000000000001001110011 T
b1000000000000001001110011 Y
b1000000000000001001110011 f
b1000000000000001001110011 r
b10 B
b10 k
b11100 S
b11100 X
b11100 R
b11100 e
b11100 0
b11100 E
b11 l
b10 n
b11100 c
b1111 a
b1110001111010 `
b100000001110 d
b1111010000000011100 b
b0 =
b10 <
b11 @
b1000000000000001001010111 U
b1000000000000001001010111 W
b1110001111010011110000011 h
b1110001111010011110000011 P
b1110001111010011110000011 g
b1110001111010011110000011 .
b1110001111010011110000011 O
b1110001111010011110000011 _
b1110001111010011110000011 $
b1110001111010011110000011 ,
b1110001111010011110000011 3
b1000000000000001001010111 [
b1000000000000001001010111 5
b1000000000000001001010111 F
b1000000000000001001010111 L
b1000000000000001001010111 Z
b1000000000000000001000100 &
b1000000000000000001000100 '
b1000000000000000001000100 Q
b1000000000000000001000100 j
1"
#351
b1000000000000000001001000 %
#360
0"
#370
b1000011111111111111001111 /
b1000011111111111111001111 H
b1000011111111111111001111 {
b1000011111111111111001111 p
b1000011111111111111001111 z
b1000011111111111111001111 !
b1000011111111111111001111 T
b1000011111111111111001111 Y
b1000011111111111111001111 f
b1000011111111111111001111 r
b1 B
b1 k
0A
1?
b1 >
b1 N
b1 ^
b0 S
b0 X
b0 R
b0 e
bx ]
bx 4
bx G
bx M
bx \
bx i
bx s
b10001 0
b10001 E
b10 1
b10 D
b0 2
b0 C
b100011 l
b10001 c
b0 a
b1000100010010 `
b0 d
b10010100000010000 b
b1000011111111111111001111 U
b1000011111111111111001111 W
b100011 @
x6
b1000100010010000000100011 h
b1000100010010000000100011 P
b1000100010010000000100011 g
b1000100010010000000100011 .
b1000100010010000000100011 O
b1000100010010000000100011 _
b1000100010010000000100011 $
b1000100010010000000100011 ,
b1000100010010000000100011 3
b1000011111111111111001111 [
x7
b1000011111111111111001111 5
b1000011111111111111001111 F
b1000011111111111111001111 L
b1000011111111111111001111 Z
b1000000000000000001001000 &
b1000000000000000001001000 '
b1000000000000000001001000 Q
b1000000000000000001001000 j
1"
#371
b1000000000000000001001100 %
#380
0"
#390
b1000011111111111111010011 /
b1000011111111111111010011 H
b1000011111111111111010011 {
b1000011111111111111010011 p
b1000011111111111111010011 z
b1000011111111111111010011 !
b1000011111111111111010011 T
b1000011111111111111010011 Y
b1000011111111111111010011 f
b1000011111111111111010011 r
b100 S
b100 X
b100 R
b100 e
b10000 0
b10000 E
b100 2
b100 C
b10000 c
b100 a
b1000000010010 `
b100 d
b10010000000010000 b
b1000000010010001000100011 h
b1000000010010001000100011 P
b1000000010010001000100011 g
b1000000010010001000100011 .
b1000000010010001000100011 O
b1000000010010001000100011 _
b1000000010010001000100011 $
b1000000010010001000100011 ,
b1000000010010001000100011 3
b1000000000000000001001100 &
b1000000000000000001001100 '
b1000000000000000001001100 Q
b1000000000000000001001100 j
1"
#391
b1000000000000000001010000 %
#400
0"
#410
b1000011111111111111010111 /
b1000011111111111111010111 H
b1000011111111111111010111 {
b1000011111111111111010111 p
b1000011111111111111010111 z
b1000011111111111111010111 !
b1000011111111111111010111 T
b1000011111111111111010111 Y
b1000011111111111111010111 f
b1000011111111111111010111 r
b1000 S
b1000 X
b1000 R
b1000 e
b1010 0
b1010 E
b1000 2
b1000 C
b1010 c
b1000 a
b101000010010 `
b1000 d
b10010000000001010 b
b101000010010010000100011 h
b101000010010010000100011 P
b101000010010010000100011 g
b101000010010010000100011 .
b101000010010010000100011 O
b101000010010010000100011 _
b101000010010010000100011 $
b101000010010010000100011 ,
b101000010010010000100011 3
b1000000000000000001010000 &
b1000000000000000001010000 '
b1000000000000000001010000 Q
b1000000000000000001010000 j
1"
#411
b1000000000000000001010100 %
#420
0"
#430
b1000011111111111111011011 /
b1000011111111111111011011 H
b1000011111111111111011011 {
b1000011111111111111011011 p
b1000011111111111111011011 z
b1000011111111111111011011 !
b1000011111111111111011011 T
b1000011111111111111011011 Y
b1000011111111111111011011 f
b1000011111111111111011011 r
b1100 S
b1100 X
b1100 R
b1100 e
b1011 0
b1011 E
b1100 2
b1100 C
b1011 c
b1100 a
b101100010010 `
b1100 d
b10010100000001010 b
b101100010010011000100011 h
b101100010010011000100011 P
b101100010010011000100011 g
b101100010010011000100011 .
b101100010010011000100011 O
b101100010010011000100011 _
b101100010010011000100011 $
b101100010010011000100011 ,
b101100010010011000100011 3
b1000000000000000001010100 &
b1000000000000000001010100 '
b1000000000000000001010100 Q
b1000000000000000001010100 j
1"
#431
b1000000000000000001011000 %
#440
0"
#450
b1000011111111111111011111 /
b1000011111111111111011111 H
b1000011111111111111011111 {
b1000011111111111111011111 p
b1000011111111111111011111 z
b1000011111111111111011111 !
b1000011111111111111011111 T
b1000011111111111111011111 Y
b1000011111111111111011111 f
b1000011111111111111011111 r
b10000 S
b10000 X
b10000 R
b10000 e
b1100 0
b1100 E
b10000 2
b10000 C
b1100 c
b10000 a
b110000010010 `
b10000 d
b10010000000001100 b
b110000010010100000100011 h
b110000010010100000100011 P
b110000010010100000100011 g
b110000010010100000100011 .
b110000010010100000100011 O
b110000010010100000100011 _
b110000010010100000100011 $
b110000010010100000100011 ,
b110000010010100000100011 3
b1000000000000000001011000 &
b1000000000000000001011000 '
b1000000000000000001011000 Q
b1000000000000000001011000 j
1"
#451
b1000000000000000001011100 %
#460
0"
