PROJ/PD4/mem-wb/output-SumArray.txt
WARNING: mem-wb.v:60: $readmemh(../../rv32-benchmarks-master/simple-programs/SumArray.x): Not enough words in the file for the requested range [0:262143].
VCD info: dumpfile mem-wb-SumArray.vcd opened for output.
sp:	0x010fffff
 
time: 10	pc: 0x01000000	instr: 0xfc010113	addi	x2, x2, -64
data_rs1: 0x010fffff	data_rs2: 0x00000000
alu: 0x010fffbf
sp:	0x010fffbf
 
time: 30	pc: 0x01000004	instr: 0x02112e23	sw	x1, 60(x2)
data_rs1: 0x010fffbf	data_rs2: 0x00000000
alu: 0x010ffffb
 
time: 50	pc: 0x01000008	instr: 0x02012623	sw	x0, 44(x2)
data_rs1: 0x010fffbf	data_rs2: 0x00000000
alu: 0x010fffeb
 
time: 70	pc: 0x0100000c	instr: 0x02012423	sw	x0, 40(x2)
data_rs1: 0x010fffbf	data_rs2: 0x00000000
alu: 0x010fffe7
 
time: 90	pc: 0x01000010	instr: 0x02012623	sw	x0, 44(x2)
data_rs1: 0x010fffbf	data_rs2: 0x00000000
alu: 0x010fffeb
 
time: 110	pc: 0x01000014	instr: 0x0280006f	jal	x0, 0x0100003c
data_rs1: 0x00000000	data_rs2: 0x00000000
alu: 0x0100003c
 
time: 130	pc: 0x0100003c	instr: 0x02c12703	lw	x14, 44(x2)
data_rs1: 0x010fffbf	data_rs2: 0x00000000
alu: 0x010fffeb
 
time: 150	pc: 0x01000040	instr: 0x00900793	addi	x15, x0, 9
data_rs1: 0x00000000	data_rs2: 0x00000000
alu: 0x00000009
 
time: 170	pc: 0x01000044	instr: 0xfce7dae3	bge	x15, x14, 0x01000018
data_rs1: 0x00000009	data_rs2: 0x00000000
alu: 0x01000018
 
time: 190	pc: 0x01000018	instr: 0x02c12783	lw	x15, 44(x2)
data_rs1: 0x010fffbf	data_rs2: 0x00000000
alu: 0x010fffeb
 
time: 210	pc: 0x0100001c	instr: 0x00279793	slli	x15, x15, 0x2
data_rs1: 0x00000000	data_rs2: 0x010fffbf
alu: 0x00000000
 
time: 230	pc: 0x01000020	instr: 0x03010713	addi	x14, x2, 48
data_rs1: 0x010fffbf	data_rs2: 0x00000000
alu: 0x010fffef
 
time: 250	pc: 0x01000024	instr: 0x00f707b3	add	x15, x14, x15
data_rs1: 0x010fffef	data_rs2: 0x00000000
alu: 0x010fffef
 
time: 270	pc: 0x01000028	instr: 0x02c12703	lw	x14, 44(x2)
data_rs1: 0x010fffbf	data_rs2: 0x00000000
alu: 0x010fffeb
 
time: 290	pc: 0x0100002c	instr: 0xfce7a823	sw	x14, -48(x15)
data_rs1: 0x010fffef	data_rs2: 0x00000000
alu: 0x010fffbf
 
time: 310	pc: 0x01000030	instr: 0x02c12783	lw	x15, 44(x2)
data_rs1: 0x010fffbf	data_rs2: 0x00000000
alu: 0x010fffeb
 
time: 330	pc: 0x01000034	instr: 0x00178793	addi	x15, x15, 1
data_rs1: 0x00000000	data_rs2: 0x00000000
alu: 0x00000001
 
time: 350	pc: 0x01000038	instr: 0x02f12623	sw	x15, 44(x2)
data_rs1: 0x010fffbf	data_rs2: 0x00000001
alu: 0x010fffeb
 
time: 370	pc: 0x0100003c	instr: 0x02c12703	lw	x14, 44(x2)
data_rs1: 0x010fffbf	data_rs2: 0x00000000
alu: 0x010fffeb
 
time: 390	pc: 0x01000040	instr: 0x00900793	addi	x15, x0, 9
data_rs1: 0x00000000	data_rs2: 0x00000000
alu: 0x00000009
 
time: 410	pc: 0x01000044	instr: 0xfce7dae3	bge	x15, x14, 0x01000018
data_rs1: 0x00000009	data_rs2: 0x00000001
alu: 0x01000018
 
time: 430	pc: 0x01000018	instr: 0x02c12783	lw	x15, 44(x2)
data_rs1: 0x010fffbf	data_rs2: 0x00000000
alu: 0x010fffeb
 
time: 450	pc: 0x0100001c	instr: 0x00279793	slli	x15, x15, 0x2
data_rs1: 0x00000001	data_rs2: 0x010fffbf
alu: 0x00000004
 
time: 470	pc: 0x01000020	instr: 0x03010713	addi	x14, x2, 48
data_rs1: 0x010fffbf	data_rs2: 0x00000000
alu: 0x010fffef
 
time: 490	pc: 0x01000024	instr: 0x00f707b3	add	x15, x14, x15
data_rs1: 0x010fffef	data_rs2: 0x00000004
alu: 0x010ffff3
 
time: 510	pc: 0x01000028	instr: 0x02c12703	lw	x14, 44(x2)
data_rs1: 0x010fffbf	data_rs2: 0x00000000
alu: 0x010fffeb
 
time: 530	pc: 0x0100002c	instr: 0xfce7a823	sw	x14, -48(x15)
data_rs1: 0x010ffff3	data_rs2: 0x00000001
alu: 0x010fffc3
 
time: 550	pc: 0x01000030	instr: 0x02c12783	lw	x15, 44(x2)
data_rs1: 0x010fffbf	data_rs2: 0x00000000
alu: 0x010fffeb
 
time: 570	pc: 0x01000034	instr: 0x00178793	addi	x15, x15, 1
data_rs1: 0x00000001	data_rs2: 0x00000000
alu: 0x00000002
 
time: 590	pc: 0x01000038	instr: 0x02f12623	sw	x15, 44(x2)
data_rs1: 0x010fffbf	data_rs2: 0x00000002
alu: 0x010fffeb
 
time: 610	pc: 0x0100003c	instr: 0x02c12703	lw	x14, 44(x2)
data_rs1: 0x010fffbf	data_rs2: 0x00000000
alu: 0x010fffeb
 
time: 630	pc: 0x01000040	instr: 0x00900793	addi	x15, x0, 9
data_rs1: 0x00000000	data_rs2: 0x00000000
alu: 0x00000009
 
time: 650	pc: 0x01000044	instr: 0xfce7dae3	bge	x15, x14, 0x01000018
data_rs1: 0x00000009	data_rs2: 0x00000002
alu: 0x01000018
 
time: 670	pc: 0x01000018	instr: 0x02c12783	lw	x15, 44(x2)
data_rs1: 0x010fffbf	data_rs2: 0x00000000
alu: 0x010fffeb
 
time: 690	pc: 0x0100001c	instr: 0x00279793	slli	x15, x15, 0x2
data_rs1: 0x00000002	data_rs2: 0x010fffbf
alu: 0x00000008
 
time: 710	pc: 0x01000020	instr: 0x03010713	addi	x14, x2, 48
data_rs1: 0x010fffbf	data_rs2: 0x00000000
alu: 0x010fffef
 
time: 730	pc: 0x01000024	instr: 0x00f707b3	add	x15, x14, x15
data_rs1: 0x010fffef	data_rs2: 0x00000008
alu: 0x010ffff7
 
time: 750	pc: 0x01000028	instr: 0x02c12703	lw	x14, 44(x2)
data_rs1: 0x010fffbf	data_rs2: 0x00000000
alu: 0x010fffeb
 
time: 770	pc: 0x0100002c	instr: 0xfce7a823	sw	x14, -48(x15)
data_rs1: 0x010ffff7	data_rs2: 0x00000002
alu: 0x010fffc7
 
time: 790	pc: 0x01000030	instr: 0x02c12783	lw	x15, 44(x2)
data_rs1: 0x010fffbf	data_rs2: 0x00000000
alu: 0x010fffeb
 
time: 810	pc: 0x01000034	instr: 0x00178793	addi	x15, x15, 1
data_rs1: 0x00000002	data_rs2: 0x00000000
alu: 0x00000003
 
time: 830	pc: 0x01000038	instr: 0x02f12623	sw	x15, 44(x2)
data_rs1: 0x010fffbf	data_rs2: 0x00000003
alu: 0x010fffeb
 
time: 850	pc: 0x0100003c	instr: 0x02c12703	lw	x14, 44(x2)
data_rs1: 0x010fffbf	data_rs2: 0x00000000
alu: 0x010fffeb
 
time: 870	pc: 0x01000040	instr: 0x00900793	addi	x15, x0, 9
data_rs1: 0x00000000	data_rs2: 0x00000000
alu: 0x00000009
 
time: 890	pc: 0x01000044	instr: 0xfce7dae3	bge	x15, x14, 0x01000018
data_rs1: 0x00000009	data_rs2: 0x00000003
alu: 0x01000018
 
time: 910	pc: 0x01000018	instr: 0x02c12783	lw	x15, 44(x2)
data_rs1: 0x010fffbf	data_rs2: 0x00000000
alu: 0x010fffeb
 
time: 930	pc: 0x0100001c	instr: 0x00279793	slli	x15, x15, 0x2
data_rs1: 0x00000003	data_rs2: 0x010fffbf
alu: 0x0000000c
 
time: 950	pc: 0x01000020	instr: 0x03010713	addi	x14, x2, 48
data_rs1: 0x010fffbf	data_rs2: 0x00000000
alu: 0x010fffef
 
time: 970	pc: 0x01000024	instr: 0x00f707b3	add	x15, x14, x15
data_rs1: 0x010fffef	data_rs2: 0x0000000c
alu: 0x010ffffb
 
time: 990	pc: 0x01000028	instr: 0x02c12703	lw	x14, 44(x2)
data_rs1: 0x010fffbf	data_rs2: 0x00000000
alu: 0x010fffeb
 
time: 1010	pc: 0x0100002c	instr: 0xfce7a823	sw	x14, -48(x15)
data_rs1: 0x010ffffb	data_rs2: 0x00000003
alu: 0x010fffcb
 
time: 1030	pc: 0x01000030	instr: 0x02c12783	lw	x15, 44(x2)
data_rs1: 0x010fffbf	data_rs2: 0x00000000
alu: 0x010fffeb
 
time: 1050	pc: 0x01000034	instr: 0x00178793	addi	x15, x15, 1
data_rs1: 0x00000003	data_rs2: 0x00000000
alu: 0x00000004
 
time: 1070	pc: 0x01000038	instr: 0x02f12623	sw	x15, 44(x2)
data_rs1: 0x010fffbf	data_rs2: 0x00000004
alu: 0x010fffeb
 
time: 1090	pc: 0x0100003c	instr: 0x02c12703	lw	x14, 44(x2)
data_rs1: 0x010fffbf	data_rs2: 0x00000000
alu: 0x010fffeb
 
time: 1110	pc: 0x01000040	instr: 0x00900793	addi	x15, x0, 9
data_rs1: 0x00000000	data_rs2: 0x00000000
alu: 0x00000009
 
time: 1130	pc: 0x01000044	instr: 0xfce7dae3	bge	x15, x14, 0x01000018
data_rs1: 0x00000009	data_rs2: 0x00000004
alu: 0x01000018
 
time: 1150	pc: 0x01000018	instr: 0x02c12783	lw	x15, 44(x2)
data_rs1: 0x010fffbf	data_rs2: 0x00000000
alu: 0x010fffeb
 
time: 1170	pc: 0x0100001c	instr: 0x00279793	slli	x15, x15, 0x2
data_rs1: 0x00000004	data_rs2: 0x010fffbf
alu: 0x00000010
 
time: 1190	pc: 0x01000020	instr: 0x03010713	addi	x14, x2, 48
data_rs1: 0x010fffbf	data_rs2: 0x00000000
alu: 0x010fffef
 
time: 1210	pc: 0x01000024	instr: 0x00f707b3	add	x15, x14, x15
data_rs1: 0x010fffef	data_rs2: 0x00000010
alu: 0x010fffff
 
time: 1230	pc: 0x01000028	instr: 0x02c12703	lw	x14, 44(x2)
data_rs1: 0x010fffbf	data_rs2: 0x00000000
alu: 0x010fffeb
 
time: 1250	pc: 0x0100002c	instr: 0xfce7a823	sw	x14, -48(x15)
data_rs1: 0x010fffff	data_rs2: 0x00000004
alu: 0x010fffcf
 
time: 1270	pc: 0x01000030	instr: 0x02c12783	lw	x15, 44(x2)
data_rs1: 0x010fffbf	data_rs2: 0x00000000
alu: 0x010fffeb
 
time: 1290	pc: 0x01000034	instr: 0x00178793	addi	x15, x15, 1
data_rs1: 0x00000004	data_rs2: 0x00000000
alu: 0x00000005
 
time: 1310	pc: 0x01000038	instr: 0x02f12623	sw	x15, 44(x2)
data_rs1: 0x010fffbf	data_rs2: 0x00000005
alu: 0x010fffeb
 
time: 1330	pc: 0x0100003c	instr: 0x02c12703	lw	x14, 44(x2)
data_rs1: 0x010fffbf	data_rs2: 0x00000000
alu: 0x010fffeb
 
time: 1350	pc: 0x01000040	instr: 0x00900793	addi	x15, x0, 9
data_rs1: 0x00000000	data_rs2: 0x00000000
alu: 0x00000009
 
time: 1370	pc: 0x01000044	instr: 0xfce7dae3	bge	x15, x14, 0x01000018
data_rs1: 0x00000009	data_rs2: 0x00000005
alu: 0x01000018
 
time: 1390	pc: 0x01000018	instr: 0x02c12783	lw	x15, 44(x2)
data_rs1: 0x010fffbf	data_rs2: 0x00000000
alu: 0x010fffeb
 
time: 1410	pc: 0x0100001c	instr: 0x00279793	slli	x15, x15, 0x2
data_rs1: 0x00000005	data_rs2: 0x010fffbf
alu: 0x00000014
 
time: 1430	pc: 0x01000020	instr: 0x03010713	addi	x14, x2, 48
data_rs1: 0x010fffbf	data_rs2: 0x00000000
alu: 0x010fffef
 
time: 1450	pc: 0x01000024	instr: 0x00f707b3	add	x15, x14, x15
data_rs1: 0x010fffef	data_rs2: 0x00000014
alu: 0x01100003
 
time: 1470	pc: 0x01000028	instr: 0x02c12703	lw	x14, 44(x2)
data_rs1: 0x010fffbf	data_rs2: 0x00000000
alu: 0x010fffeb
 
time: 1490	pc: 0x0100002c	instr: 0xfce7a823	sw	x14, -48(x15)
data_rs1: 0x01100003	data_rs2: 0x00000005
alu: 0x010fffd3
 
time: 1510	pc: 0x01000030	instr: 0x02c12783	lw	x15, 44(x2)
data_rs1: 0x010fffbf	data_rs2: 0x00000000
alu: 0x010fffeb
 
time: 1530	pc: 0x01000034	instr: 0x00178793	addi	x15, x15, 1
data_rs1: 0x00000005	data_rs2: 0x00000000
alu: 0x00000006
 
time: 1550	pc: 0x01000038	instr: 0x02f12623	sw	x15, 44(x2)
data_rs1: 0x010fffbf	data_rs2: 0x00000006
alu: 0x010fffeb
 
time: 1570	pc: 0x0100003c	instr: 0x02c12703	lw	x14, 44(x2)
data_rs1: 0x010fffbf	data_rs2: 0x00000000
alu: 0x010fffeb
 
time: 1590	pc: 0x01000040	instr: 0x00900793	addi	x15, x0, 9
data_rs1: 0x00000000	data_rs2: 0x00000000
alu: 0x00000009
 
time: 1610	pc: 0x01000044	instr: 0xfce7dae3	bge	x15, x14, 0x01000018
data_rs1: 0x00000009	data_rs2: 0x00000006
alu: 0x01000018
 
time: 1630	pc: 0x01000018	instr: 0x02c12783	lw	x15, 44(x2)
data_rs1: 0x010fffbf	data_rs2: 0x00000000
alu: 0x010fffeb
 
time: 1650	pc: 0x0100001c	instr: 0x00279793	slli	x15, x15, 0x2
data_rs1: 0x00000006	data_rs2: 0x010fffbf
alu: 0x00000018
 
time: 1670	pc: 0x01000020	instr: 0x03010713	addi	x14, x2, 48
data_rs1: 0x010fffbf	data_rs2: 0x00000000
alu: 0x010fffef
 
time: 1690	pc: 0x01000024	instr: 0x00f707b3	add	x15, x14, x15
data_rs1: 0x010fffef	data_rs2: 0x00000018
alu: 0x01100007
 
time: 1710	pc: 0x01000028	instr: 0x02c12703	lw	x14, 44(x2)
data_rs1: 0x010fffbf	data_rs2: 0x00000000
alu: 0x010fffeb
 
time: 1730	pc: 0x0100002c	instr: 0xfce7a823	sw	x14, -48(x15)
data_rs1: 0x01100007	data_rs2: 0x00000006
alu: 0x010fffd7
 
time: 1750	pc: 0x01000030	instr: 0x02c12783	lw	x15, 44(x2)
data_rs1: 0x010fffbf	data_rs2: 0x00000000
alu: 0x010fffeb
 
time: 1770	pc: 0x01000034	instr: 0x00178793	addi	x15, x15, 1
data_rs1: 0x00000006	data_rs2: 0x00000000
alu: 0x00000007
 
time: 1790	pc: 0x01000038	instr: 0x02f12623	sw	x15, 44(x2)
data_rs1: 0x010fffbf	data_rs2: 0x00000007
alu: 0x010fffeb
 
time: 1810	pc: 0x0100003c	instr: 0x02c12703	lw	x14, 44(x2)
data_rs1: 0x010fffbf	data_rs2: 0x00000000
alu: 0x010fffeb
 
time: 1830	pc: 0x01000040	instr: 0x00900793	addi	x15, x0, 9
data_rs1: 0x00000000	data_rs2: 0x00000000
alu: 0x00000009
 
time: 1850	pc: 0x01000044	instr: 0xfce7dae3	bge	x15, x14, 0x01000018
data_rs1: 0x00000009	data_rs2: 0x00000007
alu: 0x01000018
 
time: 1870	pc: 0x01000018	instr: 0x02c12783	lw	x15, 44(x2)
data_rs1: 0x010fffbf	data_rs2: 0x00000000
alu: 0x010fffeb
 
time: 1890	pc: 0x0100001c	instr: 0x00279793	slli	x15, x15, 0x2
data_rs1: 0x00000007	data_rs2: 0x010fffbf
alu: 0x0000001c
 
time: 1910	pc: 0x01000020	instr: 0x03010713	addi	x14, x2, 48
data_rs1: 0x010fffbf	data_rs2: 0x00000000
alu: 0x010fffef
 
time: 1930	pc: 0x01000024	instr: 0x00f707b3	add	x15, x14, x15
data_rs1: 0x010fffef	data_rs2: 0x0000001c
alu: 0x0110000b
 
time: 1950	pc: 0x01000028	instr: 0x02c12703	lw	x14, 44(x2)
data_rs1: 0x010fffbf	data_rs2: 0x00000000
alu: 0x010fffeb
 
time: 1970	pc: 0x0100002c	instr: 0xfce7a823	sw	x14, -48(x15)
data_rs1: 0x0110000b	data_rs2: 0x00000007
alu: 0x010fffdb
 
time: 1990	pc: 0x01000030	instr: 0x02c12783	lw	x15, 44(x2)
data_rs1: 0x010fffbf	data_rs2: 0x00000000
alu: 0x010fffeb
 
time: 2010	pc: 0x01000034	instr: 0x00178793	addi	x15, x15, 1
data_rs1: 0x00000007	data_rs2: 0x00000000
alu: 0x00000008
 
time: 2030	pc: 0x01000038	instr: 0x02f12623	sw	x15, 44(x2)
data_rs1: 0x010fffbf	data_rs2: 0x00000008
alu: 0x010fffeb
 
time: 2050	pc: 0x0100003c	instr: 0x02c12703	lw	x14, 44(x2)
data_rs1: 0x010fffbf	data_rs2: 0x00000000
alu: 0x010fffeb
 
time: 2070	pc: 0x01000040	instr: 0x00900793	addi	x15, x0, 9
data_rs1: 0x00000000	data_rs2: 0x00000000
alu: 0x00000009
 
time: 2090	pc: 0x01000044	instr: 0xfce7dae3	bge	x15, x14, 0x01000018
data_rs1: 0x00000009	data_rs2: 0x00000008
alu: 0x01000018
 
time: 2110	pc: 0x01000018	instr: 0x02c12783	lw	x15, 44(x2)
data_rs1: 0x010fffbf	data_rs2: 0x00000000
alu: 0x010fffeb
 
time: 2130	pc: 0x0100001c	instr: 0x00279793	slli	x15, x15, 0x2
data_rs1: 0x00000008	data_rs2: 0x010fffbf
alu: 0x00000020
 
time: 2150	pc: 0x01000020	instr: 0x03010713	addi	x14, x2, 48
data_rs1: 0x010fffbf	data_rs2: 0x00000000
alu: 0x010fffef
 
time: 2170	pc: 0x01000024	instr: 0x00f707b3	add	x15, x14, x15
data_rs1: 0x010fffef	data_rs2: 0x00000020
alu: 0x0110000f
 
time: 2190	pc: 0x01000028	instr: 0x02c12703	lw	x14, 44(x2)
data_rs1: 0x010fffbf	data_rs2: 0x00000000
alu: 0x010fffeb
 
time: 2210	pc: 0x0100002c	instr: 0xfce7a823	sw	x14, -48(x15)
data_rs1: 0x0110000f	data_rs2: 0x00000008
alu: 0x010fffdf
 
time: 2230	pc: 0x01000030	instr: 0x02c12783	lw	x15, 44(x2)
data_rs1: 0x010fffbf	data_rs2: 0x00000000
alu: 0x010fffeb
 
time: 2250	pc: 0x01000034	instr: 0x00178793	addi	x15, x15, 1
data_rs1: 0x00000008	data_rs2: 0x00000000
alu: 0x00000009
 
time: 2270	pc: 0x01000038	instr: 0x02f12623	sw	x15, 44(x2)
data_rs1: 0x010fffbf	data_rs2: 0x00000009
alu: 0x010fffeb
 
time: 2290	pc: 0x0100003c	instr: 0x02c12703	lw	x14, 44(x2)
data_rs1: 0x010fffbf	data_rs2: 0x00000000
alu: 0x010fffeb
 
time: 2310	pc: 0x01000040	instr: 0x00900793	addi	x15, x0, 9
data_rs1: 0x00000000	data_rs2: 0x00000000
alu: 0x00000009
 
time: 2330	pc: 0x01000044	instr: 0xfce7dae3	bge	x15, x14, 0x01000018
data_rs1: 0x00000009	data_rs2: 0x00000009
alu: 0x01000018
 
time: 2350	pc: 0x01000018	instr: 0x02c12783	lw	x15, 44(x2)
data_rs1: 0x010fffbf	data_rs2: 0x00000000
alu: 0x010fffeb
 
time: 2370	pc: 0x0100001c	instr: 0x00279793	slli	x15, x15, 0x2
data_rs1: 0x00000009	data_rs2: 0x010fffbf
alu: 0x00000024
 
time: 2390	pc: 0x01000020	instr: 0x03010713	addi	x14, x2, 48
data_rs1: 0x010fffbf	data_rs2: 0x00000000
alu: 0x010fffef
 
time: 2410	pc: 0x01000024	instr: 0x00f707b3	add	x15, x14, x15
data_rs1: 0x010fffef	data_rs2: 0x00000024
alu: 0x01100013
 
time: 2430	pc: 0x01000028	instr: 0x02c12703	lw	x14, 44(x2)
data_rs1: 0x010fffbf	data_rs2: 0x00000000
alu: 0x010fffeb
 
time: 2450	pc: 0x0100002c	instr: 0xfce7a823	sw	x14, -48(x15)
data_rs1: 0x01100013	data_rs2: 0x00000009
alu: 0x010fffe3
 
time: 2470	pc: 0x01000030	instr: 0x02c12783	lw	x15, 44(x2)
data_rs1: 0x010fffbf	data_rs2: 0x00000000
alu: 0x010fffeb
 
time: 2490	pc: 0x01000034	instr: 0x00178793	addi	x15, x15, 1
data_rs1: 0x00000009	data_rs2: 0x00000000
alu: 0x0000000a
 
time: 2510	pc: 0x01000038	instr: 0x02f12623	sw	x15, 44(x2)
data_rs1: 0x010fffbf	data_rs2: 0x0000000a
alu: 0x010fffeb
 
time: 2530	pc: 0x0100003c	instr: 0x02c12703	lw	x14, 44(x2)
data_rs1: 0x010fffbf	data_rs2: 0x00000000
alu: 0x010fffeb
 
time: 2550	pc: 0x01000040	instr: 0x00900793	addi	x15, x0, 9
data_rs1: 0x00000000	data_rs2: 0x00000000
alu: 0x00000009
 
time: 2570	pc: 0x01000044	instr: 0xfce7dae3	bge	x15, x14, 0x01000018
data_rs1: 0x00000009	data_rs2: 0x0000000a
alu: 0x01000018
 
time: 2590	pc: 0x01000048	instr: 0x02012623	sw	x0, 44(x2)
data_rs1: 0x010fffbf	data_rs2: 0x00000000
alu: 0x010fffeb
 
time: 2610	pc: 0x0100004c	instr: 0x0300006f	jal	x0, 0x0100007c
data_rs1: 0x00000000	data_rs2: 0x00000000
alu: 0x0100007c
 
time: 2630	pc: 0x0100007c	instr: 0x02c12703	lw	x14, 44(x2)
data_rs1: 0x010fffbf	data_rs2: 0x00000000
alu: 0x010fffeb
 
time: 2650	pc: 0x01000080	instr: 0x00900793	addi	x15, x0, 9
data_rs1: 0x00000000	data_rs2: 0x00000000
alu: 0x00000009
 
time: 2670	pc: 0x01000084	instr: 0xfce7d6e3	bge	x15, x14, 0x01000050
data_rs1: 0x00000009	data_rs2: 0x00000000
alu: 0x01000050
 
time: 2690	pc: 0x01000050	instr: 0x02c12783	lw	x15, 44(x2)
data_rs1: 0x010fffbf	data_rs2: 0x00000000
alu: 0x010fffeb
 
time: 2710	pc: 0x01000054	instr: 0x00279793	slli	x15, x15, 0x2
data_rs1: 0x00000000	data_rs2: 0x010fffbf
alu: 0x00000000
 
time: 2730	pc: 0x01000058	instr: 0x03010713	addi	x14, x2, 48
data_rs1: 0x010fffbf	data_rs2: 0x00000000
alu: 0x010fffef
 
time: 2750	pc: 0x0100005c	instr: 0x00f707b3	add	x15, x14, x15
data_rs1: 0x010fffef	data_rs2: 0x00000000
alu: 0x010fffef
 
time: 2770	pc: 0x01000060	instr: 0xfd07a783	lw	x15, -48(x15)
data_rs1: 0x010fffef	data_rs2: 0x00000000
alu: 0x010fffbf
 
time: 2790	pc: 0x01000064	instr: 0x02812703	lw	x14, 40(x2)
data_rs1: 0x010fffbf	data_rs2: 0x00000000
alu: 0x010fffe7
 
time: 2810	pc: 0x01000068	instr: 0x00f707b3	add	x15, x14, x15
data_rs1: 0x00000000	data_rs2: 0x00000000
alu: 0x00000000
 
time: 2830	pc: 0x0100006c	instr: 0x02f12423	sw	x15, 40(x2)
data_rs1: 0x010fffbf	data_rs2: 0x00000000
alu: 0x010fffe7
 
time: 2850	pc: 0x01000070	instr: 0x02c12783	lw	x15, 44(x2)
data_rs1: 0x010fffbf	data_rs2: 0x00000000
alu: 0x010fffeb
 
time: 2870	pc: 0x01000074	instr: 0x00178793	addi	x15, x15, 1
data_rs1: 0x00000000	data_rs2: 0x00000000
alu: 0x00000001
 
time: 2890	pc: 0x01000078	instr: 0x02f12623	sw	x15, 44(x2)
data_rs1: 0x010fffbf	data_rs2: 0x00000001
alu: 0x010fffeb
 
time: 2910	pc: 0x0100007c	instr: 0x02c12703	lw	x14, 44(x2)
data_rs1: 0x010fffbf	data_rs2: 0x00000000
alu: 0x010fffeb
 
time: 2930	pc: 0x01000080	instr: 0x00900793	addi	x15, x0, 9
data_rs1: 0x00000000	data_rs2: 0x00000000
alu: 0x00000009
 
time: 2950	pc: 0x01000084	instr: 0xfce7d6e3	bge	x15, x14, 0x01000050
data_rs1: 0x00000009	data_rs2: 0x00000001
alu: 0x01000050
 
time: 2970	pc: 0x01000050	instr: 0x02c12783	lw	x15, 44(x2)
data_rs1: 0x010fffbf	data_rs2: 0x00000000
alu: 0x010fffeb
 
time: 2990	pc: 0x01000054	instr: 0x00279793	slli	x15, x15, 0x2
data_rs1: 0x00000001	data_rs2: 0x010fffbf
alu: 0x00000004
 
time: 3010	pc: 0x01000058	instr: 0x03010713	addi	x14, x2, 48
data_rs1: 0x010fffbf	data_rs2: 0x00000000
alu: 0x010fffef
 
time: 3030	pc: 0x0100005c	instr: 0x00f707b3	add	x15, x14, x15
data_rs1: 0x010fffef	data_rs2: 0x00000004
alu: 0x010ffff3
 
time: 3050	pc: 0x01000060	instr: 0xfd07a783	lw	x15, -48(x15)
data_rs1: 0x010ffff3	data_rs2: 0x00000000
alu: 0x010fffc3
 
time: 3070	pc: 0x01000064	instr: 0x02812703	lw	x14, 40(x2)
data_rs1: 0x010fffbf	data_rs2: 0x00000000
alu: 0x010fffe7
 
time: 3090	pc: 0x01000068	instr: 0x00f707b3	add	x15, x14, x15
data_rs1: 0x00000000	data_rs2: 0x00000001
alu: 0x00000001
 
time: 3110	pc: 0x0100006c	instr: 0x02f12423	sw	x15, 40(x2)
data_rs1: 0x010fffbf	data_rs2: 0x00000001
alu: 0x010fffe7
 
time: 3130	pc: 0x01000070	instr: 0x02c12783	lw	x15, 44(x2)
data_rs1: 0x010fffbf	data_rs2: 0x00000000
alu: 0x010fffeb
 
time: 3150	pc: 0x01000074	instr: 0x00178793	addi	x15, x15, 1
data_rs1: 0x00000001	data_rs2: 0x00000000
alu: 0x00000002
 
time: 3170	pc: 0x01000078	instr: 0x02f12623	sw	x15, 44(x2)
data_rs1: 0x010fffbf	data_rs2: 0x00000002
alu: 0x010fffeb
 
time: 3190	pc: 0x0100007c	instr: 0x02c12703	lw	x14, 44(x2)
data_rs1: 0x010fffbf	data_rs2: 0x00000000
alu: 0x010fffeb
 
time: 3210	pc: 0x01000080	instr: 0x00900793	addi	x15, x0, 9
data_rs1: 0x00000000	data_rs2: 0x00000000
alu: 0x00000009
 
time: 3230	pc: 0x01000084	instr: 0xfce7d6e3	bge	x15, x14, 0x01000050
data_rs1: 0x00000009	data_rs2: 0x00000002
alu: 0x01000050
 
time: 3250	pc: 0x01000050	instr: 0x02c12783	lw	x15, 44(x2)
data_rs1: 0x010fffbf	data_rs2: 0x00000000
alu: 0x010fffeb
 
time: 3270	pc: 0x01000054	instr: 0x00279793	slli	x15, x15, 0x2
data_rs1: 0x00000002	data_rs2: 0x010fffbf
alu: 0x00000008
 
time: 3290	pc: 0x01000058	instr: 0x03010713	addi	x14, x2, 48
data_rs1: 0x010fffbf	data_rs2: 0x00000000
alu: 0x010fffef
 
time: 3310	pc: 0x0100005c	instr: 0x00f707b3	add	x15, x14, x15
data_rs1: 0x010fffef	data_rs2: 0x00000008
alu: 0x010ffff7
 
time: 3330	pc: 0x01000060	instr: 0xfd07a783	lw	x15, -48(x15)
data_rs1: 0x010ffff7	data_rs2: 0x00000000
alu: 0x010fffc7
 
time: 3350	pc: 0x01000064	instr: 0x02812703	lw	x14, 40(x2)
data_rs1: 0x010fffbf	data_rs2: 0x00000000
alu: 0x010fffe7
 
time: 3370	pc: 0x01000068	instr: 0x00f707b3	add	x15, x14, x15
data_rs1: 0x00000001	data_rs2: 0x00000002
alu: 0x00000003
 
time: 3390	pc: 0x0100006c	instr: 0x02f12423	sw	x15, 40(x2)
data_rs1: 0x010fffbf	data_rs2: 0x00000003
alu: 0x010fffe7
 
time: 3410	pc: 0x01000070	instr: 0x02c12783	lw	x15, 44(x2)
data_rs1: 0x010fffbf	data_rs2: 0x00000000
alu: 0x010fffeb
 
time: 3430	pc: 0x01000074	instr: 0x00178793	addi	x15, x15, 1
data_rs1: 0x00000002	data_rs2: 0x00000000
alu: 0x00000003
 
time: 3450	pc: 0x01000078	instr: 0x02f12623	sw	x15, 44(x2)
data_rs1: 0x010fffbf	data_rs2: 0x00000003
alu: 0x010fffeb
 
time: 3470	pc: 0x0100007c	instr: 0x02c12703	lw	x14, 44(x2)
data_rs1: 0x010fffbf	data_rs2: 0x00000000
alu: 0x010fffeb
 
time: 3490	pc: 0x01000080	instr: 0x00900793	addi	x15, x0, 9
data_rs1: 0x00000000	data_rs2: 0x00000000
alu: 0x00000009
 
time: 3510	pc: 0x01000084	instr: 0xfce7d6e3	bge	x15, x14, 0x01000050
data_rs1: 0x00000009	data_rs2: 0x00000003
alu: 0x01000050
 
time: 3530	pc: 0x01000050	instr: 0x02c12783	lw	x15, 44(x2)
data_rs1: 0x010fffbf	data_rs2: 0x00000000
alu: 0x010fffeb
 
time: 3550	pc: 0x01000054	instr: 0x00279793	slli	x15, x15, 0x2
data_rs1: 0x00000003	data_rs2: 0x010fffbf
alu: 0x0000000c
 
time: 3570	pc: 0x01000058	instr: 0x03010713	addi	x14, x2, 48
data_rs1: 0x010fffbf	data_rs2: 0x00000000
alu: 0x010fffef
 
time: 3590	pc: 0x0100005c	instr: 0x00f707b3	add	x15, x14, x15
data_rs1: 0x010fffef	data_rs2: 0x0000000c
alu: 0x010ffffb
 
time: 3610	pc: 0x01000060	instr: 0xfd07a783	lw	x15, -48(x15)
data_rs1: 0x010ffffb	data_rs2: 0x00000000
alu: 0x010fffcb
 
time: 3630	pc: 0x01000064	instr: 0x02812703	lw	x14, 40(x2)
data_rs1: 0x010fffbf	data_rs2: 0x00000000
alu: 0x010fffe7
 
time: 3650	pc: 0x01000068	instr: 0x00f707b3	add	x15, x14, x15
data_rs1: 0x00000003	data_rs2: 0x00000003
alu: 0x00000006
 
time: 3670	pc: 0x0100006c	instr: 0x02f12423	sw	x15, 40(x2)
data_rs1: 0x010fffbf	data_rs2: 0x00000006
alu: 0x010fffe7
 
time: 3690	pc: 0x01000070	instr: 0x02c12783	lw	x15, 44(x2)
